<?xml version="1.0" encoding="UTF-8" standalone="no"?>
<svg
   xmlns:dc="http://purl.org/dc/elements/1.1/"
   xmlns:cc="http://creativecommons.org/ns#"
   xmlns:rdf="http://www.w3.org/1999/02/22-rdf-syntax-ns#"
   xmlns:svg="http://www.w3.org/2000/svg"
   xmlns="http://www.w3.org/2000/svg"
   xmlns:sodipodi="http://sodipodi.sourceforge.net/DTD/sodipodi-0.dtd"
   xmlns:inkscape="http://www.inkscape.org/namespaces/inkscape"
   inkscape:version="1.0 (4035a4fb49, 2020-05-01)"
   sodipodi:docname="figure2.svg"
   viewBox="0 0 422.41498 230.40817"
   height="230.40817"
   width="422.41498"
   xml:space="preserve"
   id="svg2"
   version="1.1"><metadata
     id="metadata8"><rdf:RDF><cc:Work
         rdf:about=""><dc:format>image/svg+xml</dc:format><dc:type
           rdf:resource="http://purl.org/dc/dcmitype/StillImage" /><dc:title></dc:title></cc:Work></rdf:RDF></metadata><defs
     id="defs6"><clipPath
       id="clipPath94"
       clipPathUnits="userSpaceOnUse"><path
         id="path92"
         d="M 0,0 H 396 V 216 H 0 Z" /></clipPath><clipPath
       id="clipPath98"
       clipPathUnits="userSpaceOnUse"><path
         id="path96"
         d="M 0,0 H 201168 V 109728 H 0 Z" /></clipPath></defs><sodipodi:namedview
     inkscape:current-layer="g84"
     inkscape:window-maximized="1"
     inkscape:window-y="0"
     inkscape:window-x="0"
     inkscape:cy="288.57814"
     inkscape:cx="242.70181"
     inkscape:zoom="1.4624254"
     showgrid="false"
     id="namedview4"
     inkscape:window-height="1056"
     inkscape:window-width="1920"
     inkscape:pageshadow="2"
     inkscape:pageopacity="0"
     guidetolerance="10"
     gridtolerance="10"
     objecttolerance="10"
     borderopacity="1"
     bordercolor="#666666"
     pagecolor="#ffffff" /><g
     transform="matrix(1.3333333,0,0,-1.3333333,-196.79866,659.81529)"
     inkscape:label="csc2525-report"
     inkscape:groupmode="layer"
     id="g10"><text
       id="text14"
       style="font-variant:normal;font-weight:normal;font-size:9.9626px;font-family:CMR10;-inkscape-font-specification:CMR10;writing-mode:lr-tb;fill:#000000;fill-opacity:1;fill-rule:nonzero;stroke:none"
       transform="matrix(1,0,0,-1,140.205,671.447)"><tspan
         id="tspan12"
         sodipodi:role="line"
         y="0"
         x="0 6.368094 11.349394 16.884615 19.652225 27.39715 32.378448 39.569454 45.796082 51.056332 55.483711 60.465012 64.33947 67.107079 72.088379 77.623596 84.880356 87.924927 91.817314 96.808578 108.42796 115.62295 121.15816 123.92578 128.0742 136.92697 140.80142 146.33664 154.09154 159.07283 162.97519 166.84964 169.61725 174.04463 176.81224 181.23962 188.48642 194.02164 197.95088 202.37827 211.23103 213.99864 222.86137 226.73582 232.27104 235.03865 242.28545 246.21471 250.08916 255.62437 261.15961 269.73541 276.66141 281.08878 284.99112 292.73605 297.71735 302.14474 306.57211 310.99948 314.92874 318.858 323.28537 328.82059">Table1:Locationsfromwhichthearticlesusedinthisstudywereaccessed.</tspan></text><g
       transform="translate(108,655.706)"
       id="g16"><path
         id="path18"
         style="fill:none;stroke:#000000;stroke-width:0.797;stroke-linecap:butt;stroke-linejoin:miter;stroke-miterlimit:10;stroke-dasharray:none;stroke-opacity:1"
         d="M 0,0 H 402.998" /></g><text
       id="text22"
       style="font-variant:normal;font-weight:normal;font-size:9.9626px;font-family:CMR10;-inkscape-font-specification:CMR10;writing-mode:lr-tb;fill:#000000;fill-opacity:1;fill-rule:nonzero;stroke:none"
       transform="matrix(1,0,0,-1,113.978,639.967)"><tspan
         id="tspan20"
         sodipodi:role="line"
         y="0"
         x="0 7.4719501 11.3743 15.248755 18.016365 22.443745 25.211355 32.95628 37.383659 42.36496 46.239414 50.666794 55.648094 60.629395 64.531746">Articlecategory</tspan></text><g
       transform="translate(258.248,634.587)"
       id="g24"><path
         id="path26"
         style="fill:none;stroke:#000000;stroke-width:0.398;stroke-linecap:butt;stroke-linejoin:miter;stroke-miterlimit:10;stroke-dasharray:none;stroke-opacity:1"
         d="M 0,0 V 17.933" /></g><text
       id="text30"
       style="font-variant:normal;font-weight:normal;font-size:9.9626px;font-family:CMR10;-inkscape-font-specification:CMR10;writing-mode:lr-tb;fill:#000000;fill-opacity:1;fill-rule:nonzero;stroke:none"
       transform="matrix(1,0,0,-1,264.425,639.967)"><tspan
         id="tspan28"
         sodipodi:role="line"
         y="0"
         x="0 7.4719501 14.80542">URL</tspan></text><g
       transform="translate(108,632.622)"
       id="g32"><path
         id="path34"
         style="fill:none;stroke:#000000;stroke-width:0.498;stroke-linecap:butt;stroke-linejoin:miter;stroke-miterlimit:10;stroke-dasharray:none;stroke-opacity:1"
         d="M 0,0 H 402.998" /></g><text
       id="text38"
       style="font-variant:normal;font-weight:normal;font-size:9.9626px;font-family:CMR10;-inkscape-font-specification:CMR10;writing-mode:lr-tb;fill:#000000;fill-opacity:1;fill-rule:nonzero;stroke:none"
       transform="matrix(1,0,0,-1,113.978,617.032)"><tspan
         id="tspan36"
         sodipodi:role="line"
         y="0"
         x="0 6.7805457 12.315766 17.850986 26.983702 31.411081 40.263847 47.458839 51.886215 57.142487 61.016941 64.919289 69.900589 75.995712 82.633789 91.766502 96.747803 102.00407 107.53929 111.46854 115.89592 119.79827 122.56588 128.1011 131.97556">PubMedCentral-Manuscripts</tspan></text><g
       transform="translate(258.248,611.652)"
       id="g40"><path
         id="path42"
         style="fill:none;stroke:#000000;stroke-width:0.398;stroke-linecap:butt;stroke-linejoin:miter;stroke-miterlimit:10;stroke-dasharray:none;stroke-opacity:1"
         d="M 0,0 V 17.933" /></g><text
       id="text46"
       style="font-variant:normal;font-weight:normal;font-size:9.9626px;font-family:CMTT10;-inkscape-font-specification:CMTT10;writing-mode:lr-tb;fill:#000000;fill-opacity:1;fill-rule:nonzero;stroke:none"
       transform="matrix(1,0,0,-1,264.425,617.032)"><tspan
         id="tspan44"
         sodipodi:role="line"
         y="0"
         x="0 5.2303648 10.46073 15.691095 20.921459 26.151825 31.382191 36.612556 41.842918 47.073284 52.30365 57.534016 62.764381 67.994743 73.225113 78.455475 83.685837 88.916206 94.146568 99.376938 104.6073 109.83766 115.06803 120.29839 125.52876 130.75912 135.98949 141.21985 146.45023 151.68059 156.91095 162.14131 167.37167 172.60205 177.83241 183.06277 188.29314 193.5235 198.75388 203.98424 209.2146 214.44496 219.67532 224.9057 230.13606 235.36642">ftp://ftp.ncbi.nlm.nih.gov/pub/pmc/manuscript/</tspan></text><g
       transform="translate(108,611.453)"
       id="g48"><path
         id="path50"
         style="fill:none;stroke:#000000;stroke-width:0.398;stroke-linecap:butt;stroke-linejoin:miter;stroke-miterlimit:10;stroke-dasharray:none;stroke-opacity:1"
         d="M 0,0 H 402.998" /></g><text
       id="text54"
       style="font-variant:normal;font-weight:normal;font-size:9.9626px;font-family:CMR10;-inkscape-font-specification:CMR10;writing-mode:lr-tb;fill:#000000;fill-opacity:1;fill-rule:nonzero;stroke:none"
       transform="matrix(1,0,0,-1,113.978,598.701)"><tspan
         id="tspan52"
         sodipodi:role="line"
         y="0"
         x="0 6.7805457 12.315766 17.850986 26.983702 31.411081 40.263847 47.458839 51.886215 57.142487 61.016941 64.919289 69.900589 75.995712 82.633789 90.382698 96.196877 100.62425 109.47702 116.94897 121.37635 125.80373 130.23111 134.16035">PubMedCentral-OpenAccess</tspan></text><g
       transform="translate(258.248,593.321)"
       id="g56"><path
         id="path58"
         style="fill:none;stroke:#000000;stroke-width:0.398;stroke-linecap:butt;stroke-linejoin:miter;stroke-miterlimit:10;stroke-dasharray:none;stroke-opacity:1"
         d="M 0,0 V 17.933" /></g><text
       id="text62"
       style="font-variant:normal;font-weight:normal;font-size:9.9626px;font-family:CMTT10;-inkscape-font-specification:CMTT10;writing-mode:lr-tb;fill:#000000;fill-opacity:1;fill-rule:nonzero;stroke:none"
       transform="matrix(1,0,0,-1,264.425,598.701)"><tspan
         id="tspan60"
         sodipodi:role="line"
         y="0"
         x="0 5.2303648 10.46073 15.691095 20.921459 26.151825 31.382191 36.612556 41.842918 47.073284 52.30365 57.534016 62.764381 67.994743 73.225113 78.455475 83.685837 88.916206 94.146568 99.376938 104.6073 109.83766 115.06803 120.29839 125.52876 130.75912 135.98949 141.21985 146.45023 151.68059 156.91095 162.14131 167.37167 172.60205 177.83241 183.06277 188.29314 193.5235 198.75388 203.98424 209.2146 214.44496 219.67532 224.9057 230.13606 235.36642">ftp://ftp.ncbi.nlm.nih.gov/pub/pmc/oa_package/</tspan></text><g
       transform="translate(108,593.121)"
       id="g64"><path
         id="path66"
         style="fill:none;stroke:#000000;stroke-width:0.398;stroke-linecap:butt;stroke-linejoin:miter;stroke-miterlimit:10;stroke-dasharray:none;stroke-opacity:1"
         d="M 0,0 H 402.998" /></g><text
       id="text70"
       style="font-variant:normal;font-weight:normal;font-size:9.9626px;font-family:CMR10;-inkscape-font-specification:CMR10;writing-mode:lr-tb;fill:#000000;fill-opacity:1;fill-rule:nonzero;stroke:none"
       transform="matrix(1,0,0,-1,113.978,580.369)"><tspan
         id="tspan68"
         sodipodi:role="line"
         y="0"
         x="0 6.7805457 12.315766 16.218117 21.199417 27.01359 34.758514 41.539062 50.671776 61.184311 67.832352 75.581268 81.385475 85.812859 94.675583 102.14754 106.57491 111.0023 115.42967 119.35892">EuropePMC-OpenAccess</tspan></text><g
       transform="translate(258.248,574.989)"
       id="g72"><path
         id="path74"
         style="fill:none;stroke:#000000;stroke-width:0.398;stroke-linecap:butt;stroke-linejoin:miter;stroke-miterlimit:10;stroke-dasharray:none;stroke-opacity:1"
         d="M 0,0 V 17.933" /></g><text
       id="text78"
       style="font-variant:normal;font-weight:normal;font-size:9.9626px;font-family:CMTT10;-inkscape-font-specification:CMTT10;writing-mode:lr-tb;fill:#000000;fill-opacity:1;fill-rule:nonzero;stroke:none"
       transform="matrix(1,0,0,-1,264.425,580.369)"><tspan
         id="tspan76"
         sodipodi:role="line"
         y="0"
         x="0 5.2303648 10.46073 15.691095 20.921459 26.151825 31.382191 36.612556 41.842918 47.073284 52.30365 57.534016 62.764381 67.994743 73.225113 78.455475 83.685837 88.916206 94.146568 99.376938 104.6073 109.83766 115.06803 120.29839 125.52876 130.75912 135.98949 141.21985 146.45023 151.68059 156.91095 162.14131 167.37167 172.60205 177.83241 183.06277 188.29314 193.5235 198.75388 203.98424 209.2146 214.44496 219.67532 224.9057">ftp://ftp.ebi.ac.uk/pub/databases/pmc/suppl/</tspan></text><g
       transform="translate(108,572.875)"
       id="g80"><path
         id="path82"
         style="fill:none;stroke:#000000;stroke-width:0.797;stroke-linecap:butt;stroke-linejoin:miter;stroke-miterlimit:10;stroke-dasharray:none;stroke-opacity:1"
         d="M 0,0 H 402.998" /></g><g
       transform="translate(147.599,322.055)"
       id="g84"><g
         transform="scale(0.80003)"
         id="g86"><g
           id="g88"><g
             id="g90" /><g
             id="g330"><g
               id="g328"
               clip-path="url(#clipPath94)"><g
                 id="g326"
                 transform="matrix(1,0,0,-1,0,216)"><g
                   id="g324"
                   transform="scale(0.0019685)"><g
                     id="g322"
                     clip-path="url(#clipPath98)"><g
                       id="g104"><g
                         id="g102"><path
                           id="path100"
                           style="fill:#ffffff;fill-opacity:1;fill-rule:evenodd;stroke:none"
                           d="M 0,0 H 201168 V 109728 H 0 Z" /></g></g><g
                       id="g112"><g
                         id="g108"><path
                           id="path106"
                           style="fill:#3949ab;fill-opacity:0.4615;fill-rule:evenodd;stroke:none"
                           d="m 17029.494,63928.2 v 0 c 0,-23341.766 18922.236,-42264.003 42264.002,-42264.003 v 0 c 11209.104,0 21959.124,4452.801 29885.164,12378.838 7926.035,7926.039 12378.83,18676.051 12378.83,29885.165 v 0 c 0,23341.76 -18922.23,42264 -42263.994,42264 v 0 c -23341.766,0 -42264.002,-18922.24 -42264.002,-42264 z" /></g><path
                         id="path110"
                         style="fill:none;stroke:#434343;stroke-width:381;stroke-linecap:butt;stroke-linejoin:round;stroke-miterlimit:14.3356;stroke-dasharray:none;stroke-opacity:1"
                         d="m 17029.494,63928.2 v 0 c 0,-23341.766 18922.236,-42264.003 42264.002,-42264.003 v 0 c 11209.104,0 21959.124,4452.801 29885.164,12378.838 7926.035,7926.039 12378.83,18676.051 12378.83,29885.165 v 0 c 0,23341.76 -18922.23,42264 -42263.994,42264 v 0 c -23341.766,0 -42264.002,-18922.24 -42264.002,-42264 z" /></g><g
                       id="g120"><g
                         id="g116"><path
                           id="path114"
                           style="fill:#448c27;fill-opacity:0.5462;fill-rule:evenodd;stroke:none"
                           d="m 95691.914,63922.66 v 0 c 0,-13158.734 10667.266,-23826 23825.996,-23826 v 0 c 6319.05,0 12379.29,2510.235 16847.53,6978.473 4468.25,4468.242 6978.46,10528.48 6978.46,16847.527 v 0 c 0,13158.74 -10667.24,23826.004 -23825.99,23826.004 v 0 c -13158.73,0 -23825.996,-10667.264 -23825.996,-23826.004 z" /></g><path
                         id="path118"
                         style="fill:none;stroke:#434343;stroke-width:381;stroke-linecap:butt;stroke-linejoin:round;stroke-miterlimit:14.3356;stroke-dasharray:none;stroke-opacity:1"
                         d="m 95691.914,63922.66 v 0 c 0,-13158.734 10667.266,-23826 23825.996,-23826 v 0 c 6319.05,0 12379.29,2510.235 16847.53,6978.473 4468.25,4468.242 6978.46,10528.48 6978.46,16847.527 v 0 c 0,13158.74 -10667.24,23826.004 -23825.99,23826.004 v 0 c -13158.73,0 -23825.996,-10667.264 -23825.996,-23826.004 z" /></g><g
                       id="g128"><g
                         id="g124"><path
                           id="path122"
                           style="fill:#d23369;fill-opacity:0.4077;fill-rule:evenodd;stroke:none"
                           d="m 38614.54,63918.93 v 0 c 0,-21595.438 17506.56,-39101.998 39102,-39101.998 v 0 c 10370.5,0 20316.24,4119.664 27649.29,11452.708 7333.05,7333.05 11452.71,17278.798 11452.71,27649.29 v 0 c 0,21595.44 -17506.56,39102 -39102,39102 v 0 c -21595.44,0 -39102,-17506.56 -39102,-39102 z" /></g><path
                         id="path126"
                         style="fill:none;stroke:#434343;stroke-width:381;stroke-linecap:butt;stroke-linejoin:round;stroke-miterlimit:14.3356;stroke-dasharray:none;stroke-opacity:1"
                         d="m 38614.54,63918.93 v 0 c 0,-21595.438 17506.56,-39101.998 39102,-39101.998 v 0 c 10370.5,0 20316.24,4119.664 27649.29,11452.708 7333.05,7333.05 11452.71,17278.798 11452.71,27649.29 v 0 c 0,21595.44 -17506.56,39102 -39102,39102 v 0 c -21595.44,0 -39102,-17506.56 -39102,-39102 z" /></g><g
                       id="g136"><g
                         id="g134"><g
                           id="g132"><path
                             id="path130"
                             style="fill:#000000;fill-opacity:0;fill-rule:evenodd;stroke:none"
                             d="M 2484.7402,2370.355 H 67248.74 v 15948 H 2484.7402 Z" /></g></g></g><g
                       id="g150"
                       transform="scale(381)"><g
                         id="g148"
                         transform="translate(6.521628,6.2214046)"><g
                           id="g146"><text
                             id="text140"
                             style="font-variant:normal;font-weight:normal;font-size:18.6667px;font-family:ArialMT;-inkscape-font-specification:ArialMT;writing-mode:lr-tb;fill:#3949ab;fill-opacity:1;fill-rule:nonzero;stroke:none"
                             transform="translate(9,26.919998)"><tspan
                               id="tspan138"
                               sodipodi:role="line"
                               y="0"
                               x="0 12.431999 22.810665 33.189331 48.738667 59.117332 69.495995 74.666664 88.143997 98.522667 108.90133 114.072 120.28799 130.66666 134.81067 139.98132 146.19733">PubMed Central - </tspan></text><text
                             id="text144"
                             style="font-variant:normal;font-weight:normal;font-size:18.6667px;font-family:ArialMT;-inkscape-font-specification:ArialMT;writing-mode:lr-tb;fill:#3949ab;fill-opacity:1;fill-rule:nonzero;stroke:none"
                             transform="translate(9,48.92)"><tspan
                               id="tspan142"
                               sodipodi:role="line"
                               y="0"
                               x="0 14.504 24.882666 35.261333 45.639999 50.810665 63.242664 72.575996 81.909332 92.287994 101.62133">Open Access</tspan></text></g></g></g><g
                       id="g152"
                       transform="scale(381)" /><g
                       id="g160"><g
                         id="g158"><g
                           id="g156"><path
                             id="path154"
                             style="fill:#000000;fill-opacity:0;fill-rule:evenodd;stroke:none"
                             d="M 88613.09,7044.5806 H 147773.1 V 27552.58 H 88613.09 Z" /></g></g></g><g
                       id="g174"
                       transform="scale(381)"><g
                         id="g172"
                         transform="translate(232.5803,18.489712)"><g
                           id="g170"><text
                             id="text164"
                             style="font-variant:normal;font-weight:normal;font-size:18.6667px;font-family:ArialMT;-inkscape-font-specification:ArialMT;writing-mode:lr-tb;fill:#d23369;fill-opacity:1;fill-rule:nonzero;stroke:none"
                             transform="translate(9,26.919998)"><tspan
                               id="tspan162"
                               sodipodi:role="line"
                               y="0"
                               x="0 12.431999 22.810665 29.026665 39.405331 49.783997 60.162666 65.333328 77.765327 93.314667 106.792 111.96266 118.17867">Europe PMC - </tspan></text><text
                             id="text168"
                             style="font-variant:normal;font-weight:normal;font-size:18.6667px;font-family:ArialMT;-inkscape-font-specification:ArialMT;writing-mode:lr-tb;fill:#d23369;fill-opacity:1;fill-rule:nonzero;stroke:none"
                             transform="translate(9,48.92)"><tspan
                               id="tspan166"
                               sodipodi:role="line"
                               y="0"
                               x="0 14.504 24.882666 35.261333 45.639999 50.810665 63.242664 72.575996 81.909332 92.287994 101.62133">Open Access</tspan></text></g></g></g><g
                       id="g176"
                       transform="scale(381)" /><g
                       id="g184"><g
                         id="g182"><g
                           id="g180"><path
                             id="path178"
                             style="fill:#000000;fill-opacity:0;fill-rule:evenodd;stroke:none"
                             d="m 135242.22,28959.725 h 63564 v 25727.998 h -63564 z" /></g></g></g><g
                       id="g198"
                       transform="scale(381)"><g
                         id="g196"
                         transform="translate(354.96646,76.00977)"><g
                           id="g194"><text
                             id="text188"
                             style="font-variant:normal;font-weight:normal;font-size:18.6667px;font-family:ArialMT;-inkscape-font-specification:ArialMT;writing-mode:lr-tb;fill:#448c27;fill-opacity:1;fill-rule:nonzero;stroke:none"
                             transform="translate(9,26.919998)"><tspan
                               id="tspan186"
                               sodipodi:role="line"
                               y="0"
                               x="0 12.431999 22.810665 33.189331 48.738667 59.117332 69.495995 74.666664 88.143997 98.522667 108.90133 114.072 120.28799 130.66666 134.81067 139.98132 146.19733">PubMed Central - </tspan></text><text
                             id="text192"
                             style="font-variant:normal;font-weight:normal;font-size:18.6667px;font-family:ArialMT;-inkscape-font-specification:ArialMT;writing-mode:lr-tb;fill:#448c27;fill-opacity:1;fill-rule:nonzero;stroke:none"
                             transform="translate(9,48.92)"><tspan
                               id="tspan190"
                               sodipodi:role="line"
                               y="0"
                               x="0 15.549333 25.927999 36.306664 46.685333 56.018665 65.351997 71.568001 75.711998 86.09066 91.26133">Manuscripts</tspan></text></g></g></g><g
                       id="g200"
                       transform="scale(381)" /><g
                       id="g208"><g
                         id="g206"><g
                           id="g204"><path
                             id="path202"
                             style="fill:#000000;fill-opacity:0;fill-rule:evenodd;stroke:none"
                             d="M 5529.1523,71080.125 H 39801.152 v 13440 H 5529.1523 Z" /></g></g></g><g
                       id="g218"
                       transform="scale(381)"><g
                         id="g216"
                         transform="translate(14.512211,186.56201)"><g
                           id="g214"><text
                             id="text212"
                             style="font-variant:normal;font-weight:normal;font-size:18.6667px;font-family:ArialMT;-inkscape-font-specification:ArialMT;writing-mode:lr-tb;fill:#000000;fill-opacity:1;fill-rule:nonzero;stroke:none"
                             transform="translate(11.257576,26.919998)"><tspan
                               id="tspan210"
                               sodipodi:role="line"
                               y="0"
                               x="0 10.378666 20.757332 31.136 36.306664 46.685333 57.063999">457,494</tspan></text></g></g></g><g
                       id="g220"
                       transform="scale(381)" /><g
                       id="g228"><g
                         id="g226"><g
                           id="g224"><path
                             id="path222"
                             style="fill:#000000;fill-opacity:0;fill-rule:evenodd;stroke:none"
                             d="m 46308.42,55255.855 h 40176 V 68695.86 h -40176 z" /></g></g></g><g
                       id="g238"
                       transform="scale(381)"><g
                         id="g236"
                         transform="translate(121.54441,145.02849)"><g
                           id="g234"><text
                             id="text232"
                             style="font-variant:normal;font-weight:normal;font-size:18.6667px;font-family:ArialMT;-inkscape-font-specification:ArialMT;writing-mode:lr-tb;fill:#000000;fill-opacity:1;fill-rule:nonzero;stroke:none"
                             transform="translate(11.226097,26.919998)"><tspan
                               id="tspan230"
                               sodipodi:role="line"
                               y="0"
                               x="0 10.378666 15.549333 25.927999 36.306664 46.685333 51.855999 62.234665 72.613327">1,300,360</tspan></text></g></g></g><g
                       id="g240"
                       transform="scale(381)" /><g
                       id="g248"><g
                         id="g246"><g
                           id="g244"><path
                             id="path242"
                             style="fill:#000000;fill-opacity:0;fill-rule:evenodd;stroke:none"
                             d="m 80995.35,83757.64 h 34272 v 13440 h -34272 z" /></g></g></g><g
                       id="g258"
                       transform="scale(381)"><g
                         id="g256"
                         transform="translate(212.58621,219.83632)"><g
                           id="g254"><text
                             id="text252"
                             style="font-variant:normal;font-weight:normal;font-size:18.6667px;font-family:ArialMT;-inkscape-font-specification:ArialMT;writing-mode:lr-tb;fill:#000000;fill-opacity:1;fill-rule:nonzero;stroke:none"
                             transform="translate(11.257576,26.919998)"><tspan
                               id="tspan250"
                               sodipodi:role="line"
                               y="0"
                               x="0 10.378666 20.757332 31.136 36.306664 46.685333 57.063999">174,702</tspan></text></g></g></g><g
                       id="g260"
                       transform="scale(381)" /><g
                       id="g268"><g
                         id="g266"><g
                           id="g264"><path
                             id="path262"
                             style="fill:#000000;fill-opacity:0;fill-rule:evenodd;stroke:none"
                             d="M 111527.49,56537.004 H 149171.5 V 69977 h -37644.01 z" /></g></g></g><g
                       id="g278"
                       transform="scale(381)"><g
                         id="g276"
                         transform="translate(292.72308,148.39108)"><g
                           id="g274"><text
                             id="text272"
                             style="font-variant:normal;font-weight:normal;font-size:18.6667px;font-family:ArialMT;-inkscape-font-specification:ArialMT;writing-mode:lr-tb;fill:#000000;fill-opacity:1;fill-rule:nonzero;stroke:none"
                             transform="translate(15.68277,26.919998)"><tspan
                               id="tspan270"
                               sodipodi:role="line"
                               y="0"
                               x="0 10.378666 20.757332 31.136 36.306664 46.685333 57.063999">338,536</tspan></text></g></g></g><g
                       id="g280"
                       transform="scale(381)" /><g
                       id="g288"><g
                         id="g286"><g
                           id="g284"><path
                             id="path282"
                             style="fill:#000000;fill-opacity:0;fill-rule:evenodd;stroke:none"
                             d="m 82505.49,60286.492 h 29868 V 73726.49 h -29868 z" /></g></g></g><g
                       id="g298"
                       transform="scale(381)"><g
                         id="g296"
                         transform="translate(216.54985,158.23225)"><g
                           id="g294"><text
                             id="text292"
                             style="font-variant:normal;font-weight:normal;font-size:18.6667px;font-family:ArialMT;-inkscape-font-specification:ArialMT;writing-mode:lr-tb;fill:#000000;fill-opacity:1;fill-rule:nonzero;stroke:none"
                             transform="translate(10.665905,26.919998)"><tspan
                               id="tspan290"
                               sodipodi:role="line"
                               y="0"
                               x="0 10.378666 20.757332 25.927999 36.306664 46.685333">19,042</tspan></text></g></g></g><g
                       id="g300"
                       transform="scale(381)" /><g
                       id="g308"><g
                         id="g306"><g
                           id="g304"><path
                             id="path302"
                             style="fill:#000000;fill-opacity:0;fill-rule:evenodd;stroke:none"
                             d="m 93619.1,44770.93 h 37644.01 v 13440 H 93619.1 Z" /></g></g></g><g
                       id="g318"
                       transform="scale(381)"><g
                         id="g316"
                         transform="translate(245.71944,117.509)"><g
                           id="g314"><text
                             id="text312"
                             style="font-variant:normal;font-weight:normal;font-size:18.6667px;font-family:ArialMT;-inkscape-font-specification:ArialMT;writing-mode:lr-tb;fill:#000000;fill-opacity:1;fill-rule:nonzero;stroke:none"
                             transform="translate(15.68277,26.919998)"><tspan
                               id="tspan310"
                               sodipodi:role="line"
                               y="0"
                               x="0 10.378666 20.757332 31.136 36.306664 46.685333 57.063999">129,750</tspan></text></g></g></g><g
                       id="g320"
                       transform="scale(381)" /></g></g></g></g></g></g></g><g
         transform="translate(-147.599,-322.055)"
         id="g332"><text
           id="text338"
           style="font-variant:normal;font-weight:normal;font-size:9.9626px;font-family:CMR10;-inkscape-font-specification:CMR10;writing-mode:lr-tb;fill:#000000;fill-opacity:1;fill-rule:nonzero;stroke:none"
           transform="matrix(1,0,0,-1,108,299.54)"><tspan
             id="tspan334"
             sodipodi:role="line"
             y="0"
             x="0 6.5035853 9.2711954 14.252496 19.787716 23.690067 31.126152 36.117413 43.158981 49.794071 54.221451 59.756672 68.310562 73.845779 76.613388 81.594688 86.575989 90.47834 95.459641 106.77018 110.69943 116.23465 120.937 128.14195 130.8996 136.43481 144.43478 148.30923 153.84447 161.29051 165.99286 170.97217 175.39954 179.3019 182.0695 187.0508 195.60469 198.36234 206.91623 210.79068 216.3259 223.77196 228.75325 232.65561 236.53006 239.29767 243.72505 246.49266 250.92003 257.858 263.39322 267.29556 271.99789 277.25616 280.02377 285.55899 289.98639 298.54025 303.79654 312.07346 317.60867 320.36633 326.18747 330.61487 334.51721 338.94458 344.20087 351.08401 355.01328 359.44064 363.86801 367.74249 370.5101 375.49139 381.02661 387.97452 392.95584">Figure2:Venndiagramshowingtheoverlapinthearticlesprovidedbydiferentsectionsof</tspan><tspan
             id="tspan336"
             sodipodi:role="line"
             y="17.933001"
             x="0 6.7805457 12.315766 17.850986 26.983702 31.411081 40.263847 47.458839 51.886215 57.142487 61.016941 64.919289 69.900589 75.995712 80.977013 86.51223 95.364998 102.14554 107.68076 111.58311 116.56441 122.37859 130.1235 136.90405 146.03677 153.23177 159.31693 170.11638 173.99083 178.97214 182.84659 187.82788 193.91304 198.89435">PubMedCentralandEuropePMC.Atotalof</tspan></text><text
           id="text342"
           style="font-variant:normal;font-weight:normal;font-size:9.9626px;font-family:CMBX10;-inkscape-font-specification:CMBX10;writing-mode:lr-tb;fill:#000000;fill-opacity:1;fill-rule:nonzero;stroke:none"
           transform="matrix(1,0,0,-1,314.033,281.607)"><tspan
             id="tspan340"
             sodipodi:role="line"
             y="0"
             x="0 5.7284951 8.9105492 14.639045 20.36754 26.096035 29.27809 35.006584 40.735081">2,423,865</tspan></text><text
           id="text348"
           style="font-variant:normal;font-weight:normal;font-size:9.9626px;font-family:CMR10;-inkscape-font-specification:CMR10;writing-mode:lr-tb;fill:#000000;fill-opacity:1;fill-rule:nonzero;stroke:none"
           transform="matrix(1,0,0,-1,363.819,281.607)"><tspan
             id="tspan344"
             sodipodi:role="line"
             y="0"
             x="0 5.5352206 11.070441 13.838052 19.096312 24.631533 32.376457 37.357758 41.260109 45.134563 47.902172 52.329552 55.097164 59.524544 66.781303 73.697334 78.124718 82.027069 89.771996 94.199371 99.457634 103.33208 107.23444 112.21574 116.64312 120.51757 124.94495 130.48018">uniquearticleswereextracted.</tspan><tspan
             id="tspan346"
             y="203.495"
             x="-60.310001">8</tspan></text></g></g></g></svg>
