<?xml version="1.0" encoding="UTF-8" standalone="no"?>
<svg
   xmlns:dc="http://purl.org/dc/elements/1.1/"
   xmlns:cc="http://creativecommons.org/ns#"
   xmlns:rdf="http://www.w3.org/1999/02/22-rdf-syntax-ns#"
   xmlns:svg="http://www.w3.org/2000/svg"
   xmlns="http://www.w3.org/2000/svg"
   xmlns:sodipodi="http://sodipodi.sourceforge.net/DTD/sodipodi-0.dtd"
   xmlns:inkscape="http://www.inkscape.org/namespaces/inkscape"
   inkscape:version="1.0 (4035a4fb49, 2020-05-01)"
   sodipodi:docname="figure7.svg"
   viewBox="0 0 528 198"
   height="198"
   width="528"
   xml:space="preserve"
   id="svg2"
   version="1.1"><metadata
     id="metadata8"><rdf:RDF><cc:Work
         rdf:about=""><dc:format>image/svg+xml</dc:format><dc:type
           rdf:resource="http://purl.org/dc/dcmitype/StillImage" /><dc:title></dc:title></cc:Work></rdf:RDF></metadata><defs
     id="defs6"><clipPath
       id="clipPath20"
       clipPathUnits="userSpaceOnUse"><path
         id="path18"
         d="M 0,0 H 1152 V 432 H 0 Z" /></clipPath><clipPath
       id="clipPath24"
       clipPathUnits="userSpaceOnUse"><path
         id="path22"
         d="M 167.045,75.92 H 534.04 V 353.28 H 167.045 Z" /></clipPath><clipPath
       id="clipPath28"
       clipPathUnits="userSpaceOnUse"><path
         id="path26"
         d="M 167.045,75.92 H 534.04 V 353.28 H 167.045 Z" /></clipPath><clipPath
       id="clipPath32"
       clipPathUnits="userSpaceOnUse"><path
         id="path30"
         d="M 167.045,75.92 H 534.04 V 353.28 H 167.045 Z" /></clipPath><clipPath
       id="clipPath36"
       clipPathUnits="userSpaceOnUse"><path
         id="path34"
         d="M 167.045,75.92 H 534.04 V 353.28 H 167.045 Z" /></clipPath><clipPath
       id="clipPath40"
       clipPathUnits="userSpaceOnUse"><path
         id="path38"
         d="M 167.045,75.92 H 534.04 V 353.28 H 167.045 Z" /></clipPath><clipPath
       id="clipPath44"
       clipPathUnits="userSpaceOnUse"><path
         id="path42"
         d="M 167.045,75.92 H 534.04 V 353.28 H 167.045 Z" /></clipPath><clipPath
       id="clipPath48"
       clipPathUnits="userSpaceOnUse"><path
         id="path46"
         d="M 167.045,75.92 H 534.04 V 353.28 H 167.045 Z" /></clipPath><clipPath
       id="clipPath52"
       clipPathUnits="userSpaceOnUse"><path
         id="path50"
         d="M 167.045,75.92 H 534.04 V 353.28 H 167.045 Z" /></clipPath><clipPath
       id="clipPath56"
       clipPathUnits="userSpaceOnUse"><path
         id="path54"
         d="M 167.045,75.92 H 534.04 V 353.28 H 167.045 Z" /></clipPath><clipPath
       id="clipPath60"
       clipPathUnits="userSpaceOnUse"><path
         id="path58"
         d="M 167.045,75.92 H 534.04 V 353.28 H 167.045 Z" /></clipPath><clipPath
       id="clipPath64"
       clipPathUnits="userSpaceOnUse"><path
         id="path62"
         d="M 167.045,75.92 H 534.04 V 353.28 H 167.045 Z" /></clipPath><clipPath
       id="clipPath68"
       clipPathUnits="userSpaceOnUse"><path
         id="path66"
         d="M 167.045,75.92 H 534.04 V 353.28 H 167.045 Z" /></clipPath><clipPath
       id="clipPath72"
       clipPathUnits="userSpaceOnUse"><path
         id="path70"
         d="M 167.045,75.92 H 534.04 V 353.28 H 167.045 Z" /></clipPath><clipPath
       id="clipPath76"
       clipPathUnits="userSpaceOnUse"><path
         id="path74"
         d="M 167.045,75.92 H 534.04 V 353.28 H 167.045 Z" /></clipPath><clipPath
       id="clipPath80"
       clipPathUnits="userSpaceOnUse"><path
         id="path78"
         d="M 167.045,75.92 H 534.04 V 353.28 H 167.045 Z" /></clipPath><clipPath
       id="clipPath84"
       clipPathUnits="userSpaceOnUse"><path
         id="path82"
         d="M 167.045,75.92 H 534.04 V 353.28 H 167.045 Z" /></clipPath><clipPath
       id="clipPath88"
       clipPathUnits="userSpaceOnUse"><path
         id="path86"
         d="M 167.045,75.92 H 534.04 V 353.28 H 167.045 Z" /></clipPath><clipPath
       id="clipPath92"
       clipPathUnits="userSpaceOnUse"><path
         id="path90"
         d="M 167.045,75.92 H 534.04 V 353.28 H 167.045 Z" /></clipPath><clipPath
       id="clipPath96"
       clipPathUnits="userSpaceOnUse"><path
         id="path94"
         d="M 167.045,75.92 H 534.04 V 353.28 H 167.045 Z" /></clipPath><clipPath
       id="clipPath100"
       clipPathUnits="userSpaceOnUse"><path
         id="path98"
         d="M 167.045,75.92 H 534.04 V 353.28 H 167.045 Z" /></clipPath><clipPath
       id="clipPath104"
       clipPathUnits="userSpaceOnUse"><path
         id="path102"
         d="M 167.045,75.92 H 534.04 V 353.28 H 167.045 Z" /></clipPath><clipPath
       id="clipPath108"
       clipPathUnits="userSpaceOnUse"><path
         id="path106"
         d="M 167.045,75.92 H 534.04 V 353.28 H 167.045 Z" /></clipPath><clipPath
       id="clipPath112"
       clipPathUnits="userSpaceOnUse"><path
         id="path110"
         d="M 167.045,75.92 H 534.04 V 353.28 H 167.045 Z" /></clipPath><clipPath
       id="clipPath116"
       clipPathUnits="userSpaceOnUse"><path
         id="path114"
         d="M 167.045,75.92 H 534.04 V 353.28 H 167.045 Z" /></clipPath><clipPath
       id="clipPath120"
       clipPathUnits="userSpaceOnUse"><path
         id="path118"
         d="M 167.045,75.92 H 534.04 V 353.28 H 167.045 Z" /></clipPath><clipPath
       id="clipPath124"
       clipPathUnits="userSpaceOnUse"><path
         id="path122"
         d="M 759.085,75.92 H 1126.08 V 353.28 H 759.085 Z" /></clipPath><clipPath
       id="clipPath128"
       clipPathUnits="userSpaceOnUse"><path
         id="path126"
         d="M 759.085,75.92 H 1126.08 V 353.28 H 759.085 Z" /></clipPath><clipPath
       id="clipPath132"
       clipPathUnits="userSpaceOnUse"><path
         id="path130"
         d="M 759.085,75.92 H 1126.08 V 353.28 H 759.085 Z" /></clipPath><clipPath
       id="clipPath136"
       clipPathUnits="userSpaceOnUse"><path
         id="path134"
         d="M 759.085,75.92 H 1126.08 V 353.28 H 759.085 Z" /></clipPath><clipPath
       id="clipPath140"
       clipPathUnits="userSpaceOnUse"><path
         id="path138"
         d="M 759.085,75.92 H 1126.08 V 353.28 H 759.085 Z" /></clipPath><clipPath
       id="clipPath144"
       clipPathUnits="userSpaceOnUse"><path
         id="path142"
         d="M 759.085,75.92 H 1126.08 V 353.28 H 759.085 Z" /></clipPath><clipPath
       id="clipPath148"
       clipPathUnits="userSpaceOnUse"><path
         id="path146"
         d="M 759.085,75.92 H 1126.08 V 353.28 H 759.085 Z" /></clipPath><clipPath
       id="clipPath152"
       clipPathUnits="userSpaceOnUse"><path
         id="path150"
         d="M 759.085,75.92 H 1126.08 V 353.28 H 759.085 Z" /></clipPath><clipPath
       id="clipPath156"
       clipPathUnits="userSpaceOnUse"><path
         id="path154"
         d="M 759.085,75.92 H 1126.08 V 353.28 H 759.085 Z" /></clipPath><clipPath
       id="clipPath160"
       clipPathUnits="userSpaceOnUse"><path
         id="path158"
         d="M 759.085,75.92 H 1126.08 V 353.28 H 759.085 Z" /></clipPath><clipPath
       id="clipPath164"
       clipPathUnits="userSpaceOnUse"><path
         id="path162"
         d="M 759.085,75.92 H 1126.08 V 353.28 H 759.085 Z" /></clipPath><clipPath
       id="clipPath168"
       clipPathUnits="userSpaceOnUse"><path
         id="path166"
         d="M 759.085,75.92 H 1126.08 V 353.28 H 759.085 Z" /></clipPath><clipPath
       id="clipPath172"
       clipPathUnits="userSpaceOnUse"><path
         id="path170"
         d="M 759.085,75.92 H 1126.08 V 353.28 H 759.085 Z" /></clipPath><clipPath
       id="clipPath176"
       clipPathUnits="userSpaceOnUse"><path
         id="path174"
         d="M 759.085,75.92 H 1126.08 V 353.28 H 759.085 Z" /></clipPath><clipPath
       id="clipPath180"
       clipPathUnits="userSpaceOnUse"><path
         id="path178"
         d="M 759.085,75.92 H 1126.08 V 353.28 H 759.085 Z" /></clipPath><clipPath
       id="clipPath184"
       clipPathUnits="userSpaceOnUse"><path
         id="path182"
         d="M 759.085,75.92 H 1126.08 V 353.28 H 759.085 Z" /></clipPath><clipPath
       id="clipPath188"
       clipPathUnits="userSpaceOnUse"><path
         id="path186"
         d="M 759.085,75.92 H 1126.08 V 353.28 H 759.085 Z" /></clipPath><clipPath
       id="clipPath192"
       clipPathUnits="userSpaceOnUse"><path
         id="path190"
         d="M 759.085,75.92 H 1126.08 V 353.28 H 759.085 Z" /></clipPath><clipPath
       id="clipPath196"
       clipPathUnits="userSpaceOnUse"><path
         id="path194"
         d="M 759.085,75.92 H 1126.08 V 353.28 H 759.085 Z" /></clipPath><clipPath
       id="clipPath200"
       clipPathUnits="userSpaceOnUse"><path
         id="path198"
         d="M 759.085,75.92 H 1126.08 V 353.28 H 759.085 Z" /></clipPath><clipPath
       id="clipPath204"
       clipPathUnits="userSpaceOnUse"><path
         id="path202"
         d="M 759.085,75.92 H 1126.08 V 353.28 H 759.085 Z" /></clipPath><clipPath
       id="clipPath208"
       clipPathUnits="userSpaceOnUse"><path
         id="path206"
         d="M 759.085,75.92 H 1126.08 V 353.28 H 759.085 Z" /></clipPath><clipPath
       id="clipPath212"
       clipPathUnits="userSpaceOnUse"><path
         id="path210"
         d="M 759.085,75.92 H 1126.08 V 353.28 H 759.085 Z" /></clipPath></defs><sodipodi:namedview
     inkscape:current-layer="g10"
     inkscape:window-maximized="1"
     inkscape:window-y="0"
     inkscape:window-x="0"
     inkscape:cy="202.19094"
     inkscape:cx="429.06461"
     inkscape:zoom="1.4624254"
     showgrid="false"
     id="namedview4"
     inkscape:window-height="1056"
     inkscape:window-width="1920"
     inkscape:pageshadow="2"
     inkscape:pageopacity="0"
     guidetolerance="10"
     gridtolerance="10"
     objecttolerance="10"
     borderopacity="1"
     bordercolor="#666666"
     pagecolor="#ffffff" /><g
     transform="matrix(1.3333333,0,0,-1.3333333,0,198)"
     inkscape:label="csc2525-report"
     inkscape:groupmode="layer"
     id="g10"><g
       transform="scale(0.34375)"
       id="g12"><g
         id="g14"><g
           id="g16" /><g
           id="g726"><g
             id="g724"
             clip-path="url(#clipPath20)"><path
               id="path214"
               style="fill:#ffffff;fill-opacity:1;fill-rule:nonzero;stroke:none"
               d="M 0,0 H 1152 V 432 H 0 Z" /><path
               id="path216"
               style="fill:#ffffff;fill-opacity:1;fill-rule:nonzero;stroke:none"
               d="M 167.045,75.92 H 534.04 V 353.28 H 167.045 Z" /><g
               id="g222"><g
                 id="g220"
                 clip-path="url(#clipPath24)"><path
                   id="path218"
                   style="fill:none;stroke:#cccccc;stroke-width:1;stroke-linecap:round;stroke-linejoin:round;stroke-miterlimit:10;stroke-dasharray:none;stroke-opacity:1"
                   d="M 167.045,75.92 V 353.28" /></g></g><g
               id="g228"><text
                 id="text226"
                 style="font-variant:normal;font-weight:normal;font-size:20px;font-family:'DejaVu Sans';-inkscape-font-specification:DejaVuSans;writing-mode:lr-tb;fill:#262626;fill-opacity:1;fill-rule:nonzero;stroke:none"
                 transform="matrix(1,0,0,-1,160.68562,53.716875)"><tspan
                   id="tspan224"
                   y="0"
                   x="0">0</tspan></text></g><g
               id="g234"><g
                 id="g232"
                 clip-path="url(#clipPath28)"><path
                   id="path230"
                   style="fill:none;stroke:#cccccc;stroke-width:1;stroke-linecap:round;stroke-linejoin:round;stroke-miterlimit:10;stroke-dasharray:none;stroke-opacity:1"
                   d="M 232.25378,75.92 V 353.28" /></g></g><g
               id="g240"><text
                 id="text238"
                 style="font-variant:normal;font-weight:normal;font-size:20px;font-family:'DejaVu Sans';-inkscape-font-specification:DejaVuSans;writing-mode:lr-tb;fill:#262626;fill-opacity:1;fill-rule:nonzero;stroke:none"
                 transform="matrix(1,0,0,-1,219.53503,53.716875)"><tspan
                   id="tspan236"
                   sodipodi:role="line"
                   y="0"
                   x="0 12.72">25</tspan></text></g><g
               id="g246"><g
                 id="g244"
                 clip-path="url(#clipPath32)"><path
                   id="path242"
                   style="fill:none;stroke:#cccccc;stroke-width:1;stroke-linecap:round;stroke-linejoin:round;stroke-miterlimit:10;stroke-dasharray:none;stroke-opacity:1"
                   d="M 297.46255,75.92 V 353.28" /></g></g><g
               id="g252"><text
                 id="text250"
                 style="font-variant:normal;font-weight:normal;font-size:20px;font-family:'DejaVu Sans';-inkscape-font-specification:DejaVuSans;writing-mode:lr-tb;fill:#262626;fill-opacity:1;fill-rule:nonzero;stroke:none"
                 transform="matrix(1,0,0,-1,284.74381,53.716875)"><tspan
                   id="tspan248"
                   sodipodi:role="line"
                   y="0"
                   x="0 12.72">50</tspan></text></g><g
               id="g258"><g
                 id="g256"
                 clip-path="url(#clipPath36)"><path
                   id="path254"
                   style="fill:none;stroke:#cccccc;stroke-width:1;stroke-linecap:round;stroke-linejoin:round;stroke-miterlimit:10;stroke-dasharray:none;stroke-opacity:1"
                   d="M 362.67133,75.92 V 353.28" /></g></g><g
               id="g264"><text
                 id="text262"
                 style="font-variant:normal;font-weight:normal;font-size:20px;font-family:'DejaVu Sans';-inkscape-font-specification:DejaVuSans;writing-mode:lr-tb;fill:#262626;fill-opacity:1;fill-rule:nonzero;stroke:none"
                 transform="matrix(1,0,0,-1,349.95258,53.716875)"><tspan
                   id="tspan260"
                   sodipodi:role="line"
                   y="0"
                   x="0 12.72">75</tspan></text></g><g
               id="g270"><g
                 id="g268"
                 clip-path="url(#clipPath40)"><path
                   id="path266"
                   style="fill:none;stroke:#cccccc;stroke-width:1;stroke-linecap:round;stroke-linejoin:round;stroke-miterlimit:10;stroke-dasharray:none;stroke-opacity:1"
                   d="M 427.88011,75.92 V 353.28" /></g></g><g
               id="g276"><text
                 id="text274"
                 style="font-variant:normal;font-weight:normal;font-size:20px;font-family:'DejaVu Sans';-inkscape-font-specification:DejaVuSans;writing-mode:lr-tb;fill:#262626;fill-opacity:1;fill-rule:nonzero;stroke:none"
                 transform="matrix(1,0,0,-1,408.80199,53.716875)"><tspan
                   id="tspan272"
                   sodipodi:role="line"
                   y="0"
                   x="0 12.72 25.440001">100</tspan></text></g><g
               id="g282"><g
                 id="g280"
                 clip-path="url(#clipPath44)"><path
                   id="path278"
                   style="fill:none;stroke:#cccccc;stroke-width:1;stroke-linecap:round;stroke-linejoin:round;stroke-miterlimit:10;stroke-dasharray:none;stroke-opacity:1"
                   d="M 493.08889,75.92 V 353.28" /></g></g><g
               id="g292"><text
                 id="text286"
                 style="font-variant:normal;font-weight:normal;font-size:20px;font-family:'DejaVu Sans';-inkscape-font-specification:DejaVuSans;writing-mode:lr-tb;fill:#262626;fill-opacity:1;fill-rule:nonzero;stroke:none"
                 transform="matrix(1,0,0,-1,474.01076,53.716875)"><tspan
                   id="tspan284"
                   sodipodi:role="line"
                   y="0"
                   x="0 12.72 25.440001">125</tspan></text><text
                 id="text290"
                 style="font-variant:normal;font-weight:normal;font-size:22px;font-family:'DejaVu Sans';-inkscape-font-specification:DejaVuSans;writing-mode:lr-tb;fill:#262626;fill-opacity:1;fill-rule:nonzero;stroke:none"
                 transform="matrix(1,0,0,-1,255.15187,28.841875)"><tspan
                   id="tspan288"
                   sodipodi:role="line"
                   y="0"
                   x="0 16.455999 30.403999 51.832001 65.802002 79.332001 88.374001 95.370003 108.834 116.578 123.574 132.198 145.68401 159.65401 165.77 179.3">Number of tables</tspan></text></g><g
               id="g298"><g
                 id="g296"
                 clip-path="url(#clipPath48)"><path
                   id="path294"
                   style="fill:none;stroke:#cccccc;stroke-width:1;stroke-linecap:round;stroke-linejoin:round;stroke-miterlimit:10;stroke-dasharray:none;stroke-opacity:1"
                   d="M 167.045,98.818924 H 534.04" /></g></g><g
               id="g304"><text
                 id="text302"
                 style="font-variant:normal;font-weight:normal;font-size:20px;font-family:'DejaVu Sans';-inkscape-font-specification:DejaVuSans;writing-mode:lr-tb;fill:#262626;fill-opacity:1;fill-rule:nonzero;stroke:none"
                 transform="matrix(1,0,0,-1,41.873125,91.217361)"><tspan
                   id="tspan300"
                   sodipodi:role="line"
                   y="0"
                   x="0 15.5 27.799999 40.48 52.779999 59.139999 74.099998 86.360001 105.84">Gene Name</tspan></text></g><g
               id="g312"><g
                 id="g310"
                 clip-path="url(#clipPath52)"><path
                   id="path306"
                   style="fill:none;stroke:#cccccc;stroke-width:1;stroke-linecap:round;stroke-linejoin:round;stroke-miterlimit:10;stroke-dasharray:none;stroke-opacity:1"
                   d="M 167.045,124.54805 H 534.04" /><path
                   id="path308"
                   style="fill:none;stroke:#cccccc;stroke-width:1;stroke-linecap:round;stroke-linejoin:round;stroke-miterlimit:10;stroke-dasharray:none;stroke-opacity:1"
                   d="M 167.045,150.27718 H 534.04" /></g></g><g
               id="g318"><text
                 id="text316"
                 style="font-variant:normal;font-weight:normal;font-size:20px;font-family:'DejaVu Sans';-inkscape-font-specification:DejaVuSans;writing-mode:lr-tb;fill:#262626;fill-opacity:1;fill-rule:nonzero;stroke:none"
                 transform="matrix(1,0,0,-1,69.529375,142.67562)"><tspan
                   id="tspan314"
                   sodipodi:role="line"
                   y="0"
                   x="0 13.9 26.200001 37.200001 49.5 62.200001 70.040001 82.279999">Receptor</tspan></text></g><g
               id="g324"><g
                 id="g322"
                 clip-path="url(#clipPath56)"><path
                   id="path320"
                   style="fill:none;stroke:#cccccc;stroke-width:1;stroke-linecap:round;stroke-linejoin:round;stroke-miterlimit:10;stroke-dasharray:none;stroke-opacity:1"
                   d="M 167.045,176.00631 H 534.04" /></g></g><g
               id="g330"><text
                 id="text328"
                 style="font-variant:normal;font-weight:normal;font-size:20px;font-family:'DejaVu Sans';-inkscape-font-specification:DejaVuSans;writing-mode:lr-tb;fill:#262626;fill-opacity:1;fill-rule:nonzero;stroke:none"
                 transform="matrix(1,0,0,-1,85.51375,168.40475)"><tspan
                   id="tspan326"
                   sodipodi:role="line"
                   y="0"
                   x="0 12.7 24.540001 44.02 56.720001 68.959999">Symbol</tspan></text></g><g
               id="g336"><g
                 id="g334"
                 clip-path="url(#clipPath60)"><path
                   id="path332"
                   style="fill:none;stroke:#cccccc;stroke-width:1;stroke-linecap:round;stroke-linejoin:round;stroke-miterlimit:10;stroke-dasharray:none;stroke-opacity:1"
                   d="M 167.045,201.73544 H 534.04" /></g></g><g
               id="g342"><text
                 id="text340"
                 style="font-variant:normal;font-weight:normal;font-size:20px;font-family:'DejaVu Sans';-inkscape-font-specification:DejaVuSans;writing-mode:lr-tb;fill:#262626;fill-opacity:1;fill-rule:nonzero;stroke:none"
                 transform="matrix(1,0,0,-1,102.57625,194.13387)"><tspan
                   id="tspan338"
                   sodipodi:role="line"
                   y="0"
                   x="0 11.14 23.379999 34.380001 47.060001">Locus</tspan></text></g><g
               id="g348"><g
                 id="g346"
                 clip-path="url(#clipPath64)"><path
                   id="path344"
                   style="fill:none;stroke:#cccccc;stroke-width:1;stroke-linecap:round;stroke-linejoin:round;stroke-miterlimit:10;stroke-dasharray:none;stroke-opacity:1"
                   d="M 167.045,227.46456 H 534.04" /></g></g><g
               id="g354"><text
                 id="text352"
                 style="font-variant:normal;font-weight:normal;font-size:20px;font-family:'DejaVu Sans';-inkscape-font-specification:DejaVuSans;writing-mode:lr-tb;fill:#262626;fill-opacity:1;fill-rule:nonzero;stroke:none"
                 transform="matrix(1,0,0,-1,26.3575,219.863)"><tspan
                   id="tspan350"
                   sodipodi:role="line"
                   y="0"
                   x="0 15.5 27.799999 40.48 52.779999 59.139999 71.839996 83.68 103.16 115.86 128.10001">Gene Symbol</tspan></text></g><g
               id="g360"><g
                 id="g358"
                 clip-path="url(#clipPath68)"><path
                   id="path356"
                   style="fill:none;stroke:#cccccc;stroke-width:1;stroke-linecap:round;stroke-linejoin:round;stroke-miterlimit:10;stroke-dasharray:none;stroke-opacity:1"
                   d="M 167.045,253.19369 H 534.04" /></g></g><g
               id="g366"><text
                 id="text364"
                 style="font-variant:normal;font-weight:normal;font-size:20px;font-family:'DejaVu Sans';-inkscape-font-specification:DejaVuSans;writing-mode:lr-tb;fill:#262626;fill-opacity:1;fill-rule:nonzero;stroke:none"
                 transform="matrix(1,0,0,-1,44.17,245.59213)"><tspan
                   id="tspan362"
                   sodipodi:role="line"
                   y="0"
                   x="0 15.5 27.799999 40.48 52.779999 59.139999 71.82 84.080002 103.56">Gene name</tspan></text></g><g
               id="g372"><g
                 id="g370"
                 clip-path="url(#clipPath72)"><path
                   id="path368"
                   style="fill:none;stroke:#cccccc;stroke-width:1;stroke-linecap:round;stroke-linejoin:round;stroke-miterlimit:10;stroke-dasharray:none;stroke-opacity:1"
                   d="M 167.045,278.92282 H 534.04" /></g></g><g
               id="g378"><text
                 id="text376"
                 style="font-variant:normal;font-weight:normal;font-size:20px;font-family:'DejaVu Sans';-inkscape-font-specification:DejaVuSans;writing-mode:lr-tb;fill:#262626;fill-opacity:1;fill-rule:nonzero;stroke:none"
                 transform="matrix(1,0,0,-1,94.95125,271.32126)"><tspan
                   id="tspan374"
                   sodipodi:role="line"
                   y="0"
                   x="0 5.5599999 18.24 30.940001 43.240002 55.080002">index_</tspan></text></g><g
               id="g384"><g
                 id="g382"
                 clip-path="url(#clipPath76)"><path
                   id="path380"
                   style="fill:none;stroke:#cccccc;stroke-width:1;stroke-linecap:round;stroke-linejoin:round;stroke-miterlimit:10;stroke-dasharray:none;stroke-opacity:1"
                   d="M 167.045,304.65195 H 534.04" /></g></g><g
               id="g390"><text
                 id="text388"
                 style="font-variant:normal;font-weight:normal;font-size:20px;font-family:'DejaVu Sans';-inkscape-font-specification:DejaVuSans;writing-mode:lr-tb;fill:#262626;fill-opacity:1;fill-rule:nonzero;stroke:none"
                 transform="matrix(1,0,0,-1,28.63875,297.05039)"><tspan
                   id="tspan386"
                   sodipodi:role="line"
                   y="0"
                   x="0 15.5 27.799999 40.48 52.779999 59.139999 69.559998 81.400002 100.88 113.58 125.82">Gene symbol</tspan></text></g><g
               id="g396"><g
                 id="g394"
                 clip-path="url(#clipPath80)"><path
                   id="path392"
                   style="fill:none;stroke:#cccccc;stroke-width:1;stroke-linecap:round;stroke-linejoin:round;stroke-miterlimit:10;stroke-dasharray:none;stroke-opacity:1"
                   d="M 167.045,330.38108 H 534.04" /></g></g><g
               id="g402"><text
                 id="text400"
                 style="font-variant:normal;font-weight:normal;font-size:20px;font-family:'DejaVu Sans';-inkscape-font-specification:DejaVuSans;writing-mode:lr-tb;fill:#262626;fill-opacity:1;fill-rule:nonzero;stroke:none"
                 transform="matrix(1,0,0,-1,107.24813,322.77951)"><tspan
                   id="tspan398"
                   sodipodi:role="line"
                   y="0"
                   x="0 15.5 27.799999 40.48">Gene</tspan></text></g><g
               id="g408"><g
                 id="g406"
                 clip-path="url(#clipPath84)"><path
                   id="path404"
                   style="fill:#708090;fill-opacity:1;fill-rule:nonzero;stroke:none"
                   d="m 167.045,88.527273 h 7.82505 V 109.11057 H 167.045 Z" /></g></g><g
               id="g414"><g
                 id="g412"
                 clip-path="url(#clipPath88)"><path
                   id="path410"
                   style="fill:#708090;fill-opacity:1;fill-rule:nonzero;stroke:none"
                   d="m 167.045,114.2564 h 7.82505 v 20.5833 H 167.045 Z" /></g></g><g
               id="g420"><g
                 id="g418"
                 clip-path="url(#clipPath92)"><path
                   id="path416"
                   style="fill:#708090;fill-opacity:1;fill-rule:nonzero;stroke:none"
                   d="m 167.045,139.98553 h 7.82505 v 20.5833 H 167.045 Z" /></g></g><g
               id="g426"><g
                 id="g424"
                 clip-path="url(#clipPath96)"><path
                   id="path422"
                   style="fill:#708090;fill-opacity:1;fill-rule:nonzero;stroke:none"
                   d="m 167.045,165.71466 h 10.4334 v 20.5833 H 167.045 Z" /></g></g><g
               id="g432"><g
                 id="g430"
                 clip-path="url(#clipPath100)"><path
                   id="path428"
                   style="fill:#708090;fill-opacity:1;fill-rule:nonzero;stroke:none"
                   d="m 167.045,191.44378 h 10.4334 v 20.58331 H 167.045 Z" /></g></g><g
               id="g438"><g
                 id="g436"
                 clip-path="url(#clipPath104)"><path
                   id="path434"
                   style="fill:#708090;fill-opacity:1;fill-rule:nonzero;stroke:none"
                   d="m 167.045,217.17291 h 15.65011 v 20.5833 H 167.045 Z" /></g></g><g
               id="g444"><g
                 id="g442"
                 clip-path="url(#clipPath108)"><path
                   id="path440"
                   style="fill:#708090;fill-opacity:1;fill-rule:nonzero;stroke:none"
                   d="m 167.045,242.90204 h 20.86681 v 20.5833 H 167.045 Z" /></g></g><g
               id="g450"><g
                 id="g448"
                 clip-path="url(#clipPath112)"><path
                   id="path446"
                   style="fill:#708090;fill-opacity:1;fill-rule:nonzero;stroke:none"
                   d="m 167.045,268.63117 h 23.47516 v 20.5833 H 167.045 Z" /></g></g><g
               id="g456"><g
                 id="g454"
                 clip-path="url(#clipPath116)"><path
                   id="path452"
                   style="fill:#708090;fill-opacity:1;fill-rule:nonzero;stroke:none"
                   d="m 167.045,294.3603 h 23.47516 v 20.5833 H 167.045 Z" /></g></g><g
               id="g462"><g
                 id="g460"
                 clip-path="url(#clipPath120)"><path
                   id="path458"
                   style="fill:#708090;fill-opacity:1;fill-rule:nonzero;stroke:none"
                   d="m 167.045,320.08942 h 349.51905 v 20.58331 H 167.045 Z" /></g></g><g
               id="g482"><path
                 id="path464"
                 style="fill:none;stroke:#cccccc;stroke-width:1;stroke-linecap:square;stroke-linejoin:miter;stroke-miterlimit:10;stroke-dasharray:none;stroke-opacity:1"
                 d="M 167.045,75.92 V 353.28" /><path
                 id="path466"
                 style="fill:none;stroke:#cccccc;stroke-width:1;stroke-linecap:square;stroke-linejoin:miter;stroke-miterlimit:10;stroke-dasharray:none;stroke-opacity:1"
                 d="M 534.04,75.92 V 353.28" /><path
                 id="path468"
                 style="fill:none;stroke:#cccccc;stroke-width:1;stroke-linecap:square;stroke-linejoin:miter;stroke-miterlimit:10;stroke-dasharray:none;stroke-opacity:1"
                 d="M 167.045,75.92 H 534.04" /><path
                 id="path470"
                 style="fill:none;stroke:#cccccc;stroke-width:1;stroke-linecap:square;stroke-linejoin:miter;stroke-miterlimit:10;stroke-dasharray:none;stroke-opacity:1"
                 d="M 167.045,353.28 H 534.04" /><text
                 id="text474"
                 style="font-variant:normal;font-weight:normal;font-size:24px;font-family:'DejaVu Sans';-inkscape-font-specification:DejaVuSans;writing-mode:lr-tb;fill:#262626;fill-opacity:1;fill-rule:nonzero;stroke:none"
                 transform="matrix(1,0,0,-1,265.80812,386.16125)"><tspan
                   id="tspan472"
                   sodipodi:role="line"
                   y="0"
                   x="0 20.712 35.400002 47.903999 57.312 64.944 78.143997 92.832001 116.208 139.584 154.272">Most common</tspan></text><text
                 id="text478"
                 style="font-variant:normal;font-weight:normal;font-size:24px;font-family:'DejaVu Sans';-inkscape-font-specification:DejaVuSans;writing-mode:lr-tb;fill:#262626;fill-opacity:1;fill-rule:nonzero;stroke:none"
                 transform="matrix(1,0,0,-1,228.45656,359.28)"><tspan
                   id="tspan476"
                   sodipodi:role="line"
                   y="0"
                   x="0 15.24 30 45.216 59.976002 67.608002 80.807999 95.496002 102.168 117.384 140.75999 155.976 163.608 178.82401 193.536 216.912 231.672">gene column names</tspan></text><path
                 id="path480"
                 style="fill:#ffffff;fill-opacity:1;fill-rule:nonzero;stroke:none"
                 d="M 759.085,75.92 H 1126.08 V 353.28 H 759.085 Z" /></g><g
               id="g488"><g
                 id="g486"
                 clip-path="url(#clipPath124)"><path
                   id="path484"
                   style="fill:none;stroke:#cccccc;stroke-width:1;stroke-linecap:round;stroke-linejoin:round;stroke-miterlimit:10;stroke-dasharray:none;stroke-opacity:1"
                   d="M 759.085,75.92 V 353.28" /></g></g><g
               id="g494"><text
                 id="text492"
                 style="font-variant:normal;font-weight:normal;font-size:20px;font-family:'DejaVu Sans';-inkscape-font-specification:DejaVuSans;writing-mode:lr-tb;fill:#262626;fill-opacity:1;fill-rule:nonzero;stroke:none"
                 transform="matrix(1,0,0,-1,752.72562,53.716875)"><tspan
                   id="tspan490"
                   y="0"
                   x="0">0</tspan></text></g><g
               id="g500"><g
                 id="g498"
                 clip-path="url(#clipPath128)"><path
                   id="path496"
                   style="fill:none;stroke:#cccccc;stroke-width:1;stroke-linecap:round;stroke-linejoin:round;stroke-miterlimit:10;stroke-dasharray:none;stroke-opacity:1"
                   d="M 858.94758,75.92 V 353.28" /></g></g><g
               id="g506"><text
                 id="text504"
                 style="font-variant:normal;font-weight:normal;font-size:20px;font-family:'DejaVu Sans';-inkscape-font-specification:DejaVuSans;writing-mode:lr-tb;fill:#262626;fill-opacity:1;fill-rule:nonzero;stroke:none"
                 transform="matrix(1,0,0,-1,846.22884,53.716875)"><tspan
                   id="tspan502"
                   sodipodi:role="line"
                   y="0"
                   x="0 12.72">10</tspan></text></g><g
               id="g512"><g
                 id="g510"
                 clip-path="url(#clipPath132)"><path
                   id="path508"
                   style="fill:none;stroke:#cccccc;stroke-width:1;stroke-linecap:round;stroke-linejoin:round;stroke-miterlimit:10;stroke-dasharray:none;stroke-opacity:1"
                   d="M 958.81017,75.92 V 353.28" /></g></g><g
               id="g518"><text
                 id="text516"
                 style="font-variant:normal;font-weight:normal;font-size:20px;font-family:'DejaVu Sans';-inkscape-font-specification:DejaVuSans;writing-mode:lr-tb;fill:#262626;fill-opacity:1;fill-rule:nonzero;stroke:none"
                 transform="matrix(1,0,0,-1,946.09142,53.716875)"><tspan
                   id="tspan514"
                   sodipodi:role="line"
                   y="0"
                   x="0 12.72">20</tspan></text></g><g
               id="g524"><g
                 id="g522"
                 clip-path="url(#clipPath136)"><path
                   id="path520"
                   style="fill:none;stroke:#cccccc;stroke-width:1;stroke-linecap:round;stroke-linejoin:round;stroke-miterlimit:10;stroke-dasharray:none;stroke-opacity:1"
                   d="M 1058.6728,75.92 V 353.28" /></g></g><g
               id="g534"><text
                 id="text528"
                 style="font-variant:normal;font-weight:normal;font-size:20px;font-family:'DejaVu Sans';-inkscape-font-specification:DejaVuSans;writing-mode:lr-tb;fill:#262626;fill-opacity:1;fill-rule:nonzero;stroke:none"
                 transform="matrix(1,0,0,-1,1045.954,53.716875)"><tspan
                   id="tspan526"
                   sodipodi:role="line"
                   y="0"
                   x="0 12.72">30</tspan></text><text
                 id="text532"
                 style="font-variant:normal;font-weight:normal;font-size:22px;font-family:'DejaVu Sans';-inkscape-font-specification:DejaVuSans;writing-mode:lr-tb;fill:#262626;fill-opacity:1;fill-rule:nonzero;stroke:none"
                 transform="matrix(1,0,0,-1,847.19188,28.841875)"><tspan
                   id="tspan530"
                   sodipodi:role="line"
                   y="0"
                   x="0 16.455999 30.403999 51.832001 65.802002 79.332001 88.374001 95.370003 108.834 116.578 123.574 132.198 145.68401 159.65401 165.77 179.3">Number of tables</tspan></text></g><g
               id="g540"><g
                 id="g538"
                 clip-path="url(#clipPath140)"><path
                   id="path536"
                   style="fill:none;stroke:#cccccc;stroke-width:1;stroke-linecap:round;stroke-linejoin:round;stroke-miterlimit:10;stroke-dasharray:none;stroke-opacity:1"
                   d="M 759.085,98.818924 H 1126.08" /></g></g><g
               id="g546"><text
                 id="text544"
                 style="font-variant:normal;font-weight:normal;font-size:20px;font-family:'DejaVu Sans';-inkscape-font-specification:DejaVuSans;writing-mode:lr-tb;fill:#262626;fill-opacity:1;fill-rule:nonzero;stroke:none"
                 transform="matrix(1,0,0,-1,670.16312,91.217361)"><tspan
                   id="tspan542"
                   sodipodi:role="line"
                   y="0"
                   x="0 11.5 23.74 31.959999 51.439999 64.120003 69.68">Formula</tspan></text></g><g
               id="g552"><g
                 id="g550"
                 clip-path="url(#clipPath144)"><path
                   id="path548"
                   style="fill:none;stroke:#cccccc;stroke-width:1;stroke-linecap:round;stroke-linejoin:round;stroke-miterlimit:10;stroke-dasharray:none;stroke-opacity:1"
                   d="M 759.085,124.54805 H 1126.08" /></g></g><g
               id="g558"><text
                 id="text556"
                 style="font-variant:normal;font-weight:normal;font-size:20px;font-family:'DejaVu Sans';-inkscape-font-specification:DejaVuSans;writing-mode:lr-tb;fill:#262626;fill-opacity:1;fill-rule:nonzero;stroke:none"
                 transform="matrix(1,0,0,-1,707.6475,116.94649)"><tspan
                   id="tspan554"
                   sodipodi:role="line"
                   y="0"
                   x="0 12.22 27.18">TNM</tspan></text></g><g
               id="g564"><g
                 id="g562"
                 clip-path="url(#clipPath148)"><path
                   id="path560"
                   style="fill:none;stroke:#cccccc;stroke-width:1;stroke-linecap:round;stroke-linejoin:round;stroke-miterlimit:10;stroke-dasharray:none;stroke-opacity:1"
                   d="M 759.085,150.27718 H 1126.08" /></g></g><g
               id="g570"><text
                 id="text568"
                 style="font-variant:normal;font-weight:normal;font-size:20px;font-family:'DejaVu Sans';-inkscape-font-specification:DejaVuSans;writing-mode:lr-tb;fill:#262626;fill-opacity:1;fill-rule:nonzero;stroke:none"
                 transform="matrix(1,0,0,-1,599.8975,142.67562)"><tspan
                   id="tspan566"
                   sodipodi:role="line"
                   y="0"
                   x="0 13.68 27.360001 33.720001 44.139999 56.82 69.519997 79.940002 87.779999 93.339996 101.18 113.86 121.7 127.26 139.5">AA substitution</tspan></text></g><g
               id="g576"><g
                 id="g574"
                 clip-path="url(#clipPath152)"><path
                   id="path572"
                   style="fill:none;stroke:#cccccc;stroke-width:1;stroke-linecap:round;stroke-linejoin:round;stroke-miterlimit:10;stroke-dasharray:none;stroke-opacity:1"
                   d="M 759.085,176.00631 H 1126.08" /></g></g><g
               id="g582"><text
                 id="text580"
                 style="font-variant:normal;font-weight:normal;font-size:20px;font-family:'DejaVu Sans';-inkscape-font-specification:DejaVuSans;writing-mode:lr-tb;fill:#262626;fill-opacity:1;fill-rule:nonzero;stroke:none"
                 transform="matrix(1,0,0,-1,686.99125,168.40475)"><tspan
                   id="tspan578"
                   sodipodi:role="line"
                   y="0"
                   x="0 5.5599999 18.24 30.940001 43.240002 55.080002">index_</tspan></text></g><g
               id="g590"><g
                 id="g588"
                 clip-path="url(#clipPath156)"><path
                   id="path584"
                   style="fill:none;stroke:#cccccc;stroke-width:1;stroke-linecap:round;stroke-linejoin:round;stroke-miterlimit:10;stroke-dasharray:none;stroke-opacity:1"
                   d="M 759.085,201.73544 H 1126.08" /><path
                   id="path586"
                   style="fill:none;stroke:#cccccc;stroke-width:1;stroke-linecap:round;stroke-linejoin:round;stroke-miterlimit:10;stroke-dasharray:none;stroke-opacity:1"
                   d="M 759.085,227.46456 H 1126.08" /></g></g><g
               id="g596"><text
                 id="text594"
                 style="font-variant:normal;font-weight:normal;font-size:20px;font-family:'DejaVu Sans';-inkscape-font-specification:DejaVuSans;writing-mode:lr-tb;fill:#262626;fill-opacity:1;fill-rule:nonzero;stroke:none"
                 transform="matrix(1,0,0,-1,560.60062,219.863)"><tspan
                   id="tspan592"
                   sodipodi:role="line"
                   y="0"
                   x="0 13.68 33.16 38.720001 51.400002 63.639999 70 82.260002 93.260002 98.82 111.52 117.88 128.88 141.56 153.82001 166.5 179.2">Amino acid change</tspan></text></g><g
               id="g602"><g
                 id="g600"
                 clip-path="url(#clipPath160)"><path
                   id="path598"
                   style="fill:none;stroke:#cccccc;stroke-width:1;stroke-linecap:round;stroke-linejoin:round;stroke-miterlimit:10;stroke-dasharray:none;stroke-opacity:1"
                   d="M 759.085,253.19369 H 1126.08" /></g></g><g
               id="g608"><text
                 id="text606"
                 style="font-variant:normal;font-weight:normal;font-size:20px;font-family:'DejaVu Sans';-inkscape-font-specification:DejaVuSans;writing-mode:lr-tb;fill:#262626;fill-opacity:1;fill-rule:nonzero;stroke:none"
                 transform="matrix(1,0,0,-1,644.74125,245.59213)"><tspan
                   id="tspan604"
                   sodipodi:role="line"
                   y="0"
                   x="0 13.68 27.360001 33.720001 44.720001 57.400002 69.660004 82.339996 95.040001">AA change</tspan></text></g><g
               id="g614"><g
                 id="g612"
                 clip-path="url(#clipPath164)"><path
                   id="path610"
                   style="fill:none;stroke:#cccccc;stroke-width:1;stroke-linecap:round;stroke-linejoin:round;stroke-miterlimit:10;stroke-dasharray:none;stroke-opacity:1"
                   d="M 759.085,278.92282 H 1126.08" /></g></g><g
               id="g620"><text
                 id="text618"
                 style="font-variant:normal;font-weight:normal;font-size:20px;font-family:'DejaVu Sans';-inkscape-font-specification:DejaVuSans;writing-mode:lr-tb;fill:#262626;fill-opacity:1;fill-rule:nonzero;stroke:none"
                 transform="matrix(1,0,0,-1,679.61625,271.32126)"><tspan
                   id="tspan616"
                   sodipodi:role="line"
                   y="0"
                   x="0 13.68 25.940001 34.16 39.720001 51.98 64.660004">Variant</tspan></text></g><g
               id="g626"><g
                 id="g624"
                 clip-path="url(#clipPath168)"><path
                   id="path622"
                   style="fill:none;stroke:#cccccc;stroke-width:1;stroke-linecap:round;stroke-linejoin:round;stroke-miterlimit:10;stroke-dasharray:none;stroke-opacity:1"
                   d="M 759.085,304.65195 H 1126.08" /></g></g><g
               id="g632"><text
                 id="text630"
                 style="font-variant:normal;font-weight:normal;font-size:20px;font-family:'DejaVu Sans';-inkscape-font-specification:DejaVuSans;writing-mode:lr-tb;fill:#262626;fill-opacity:1;fill-rule:nonzero;stroke:none"
                 transform="matrix(1,0,0,-1,712.35062,297.05039)"><tspan
                   id="tspan628"
                   sodipodi:role="line"
                   y="0"
                   x="0 12.7 27.66">SNP</tspan></text></g><g
               id="g638"><g
                 id="g636"
                 clip-path="url(#clipPath172)"><path
                   id="path634"
                   style="fill:none;stroke:#cccccc;stroke-width:1;stroke-linecap:round;stroke-linejoin:round;stroke-miterlimit:10;stroke-dasharray:none;stroke-opacity:1"
                   d="M 759.085,330.38108 H 1126.08" /></g></g><g
               id="g644"><text
                 id="text642"
                 style="font-variant:normal;font-weight:normal;font-size:20px;font-family:'DejaVu Sans';-inkscape-font-specification:DejaVuSans;writing-mode:lr-tb;fill:#262626;fill-opacity:1;fill-rule:nonzero;stroke:none"
                 transform="matrix(1,0,0,-1,663.75688,322.77951)"><tspan
                   id="tspan640"
                   sodipodi:role="line"
                   y="0"
                   x="0 17.26 29.940001 37.779999 50.040001 57.880001 63.439999 75.68">Mutation</tspan></text></g><g
               id="g650"><g
                 id="g648"
                 clip-path="url(#clipPath176)"><path
                   id="path646"
                   style="fill:#708090;fill-opacity:1;fill-rule:nonzero;stroke:none"
                   d="m 759.085,88.527273 h 39.94503 V 109.11057 H 759.085 Z" /></g></g><g
               id="g656"><g
                 id="g654"
                 clip-path="url(#clipPath180)"><path
                   id="path652"
                   style="fill:#708090;fill-opacity:1;fill-rule:nonzero;stroke:none"
                   d="m 759.085,114.2564 h 39.94503 v 20.5833 H 759.085 Z" /></g></g><g
               id="g662"><g
                 id="g660"
                 clip-path="url(#clipPath184)"><path
                   id="path658"
                   style="fill:#708090;fill-opacity:1;fill-rule:nonzero;stroke:none"
                   d="m 759.085,139.98553 h 39.94503 v 20.5833 H 759.085 Z" /></g></g><g
               id="g668"><g
                 id="g666"
                 clip-path="url(#clipPath188)"><path
                   id="path664"
                   style="fill:#708090;fill-opacity:1;fill-rule:nonzero;stroke:none"
                   d="m 759.085,165.71466 h 49.93129 v 20.5833 H 759.085 Z" /></g></g><g
               id="g674"><g
                 id="g672"
                 clip-path="url(#clipPath192)"><path
                   id="path670"
                   style="fill:#708090;fill-opacity:1;fill-rule:nonzero;stroke:none"
                   d="m 759.085,191.44378 h 69.90381 v 20.58331 H 759.085 Z" /></g></g><g
               id="g680"><g
                 id="g678"
                 clip-path="url(#clipPath196)"><path
                   id="path676"
                   style="fill:#708090;fill-opacity:1;fill-rule:nonzero;stroke:none"
                   d="m 759.085,217.17291 h 79.89007 v 20.5833 H 759.085 Z" /></g></g><g
               id="g686"><g
                 id="g684"
                 clip-path="url(#clipPath200)"><path
                   id="path682"
                   style="fill:#708090;fill-opacity:1;fill-rule:nonzero;stroke:none"
                   d="m 759.085,242.90204 h 89.87633 v 20.5833 H 759.085 Z" /></g></g><g
               id="g692"><g
                 id="g690"
                 clip-path="url(#clipPath204)"><path
                   id="path688"
                   style="fill:#708090;fill-opacity:1;fill-rule:nonzero;stroke:none"
                   d="m 759.085,268.63117 h 99.86258 v 20.5833 H 759.085 Z" /></g></g><g
               id="g698"><g
                 id="g696"
                 clip-path="url(#clipPath208)"><path
                   id="path694"
                   style="fill:#708090;fill-opacity:1;fill-rule:nonzero;stroke:none"
                   d="m 759.085,294.3603 h 139.80762 v 20.5833 H 759.085 Z" /></g></g><g
               id="g704"><g
                 id="g702"
                 clip-path="url(#clipPath212)"><path
                   id="path700"
                   style="fill:#708090;fill-opacity:1;fill-rule:nonzero;stroke:none"
                   d="m 759.085,320.08942 h 349.519 v 20.58331 H 759.085 Z" /></g></g><g
               id="g722"><path
                 id="path706"
                 style="fill:none;stroke:#cccccc;stroke-width:1;stroke-linecap:square;stroke-linejoin:miter;stroke-miterlimit:10;stroke-dasharray:none;stroke-opacity:1"
                 d="M 759.085,75.92 V 353.28" /><path
                 id="path708"
                 style="fill:none;stroke:#cccccc;stroke-width:1;stroke-linecap:square;stroke-linejoin:miter;stroke-miterlimit:10;stroke-dasharray:none;stroke-opacity:1"
                 d="M 1126.08,75.92 V 353.28" /><path
                 id="path710"
                 style="fill:none;stroke:#cccccc;stroke-width:1;stroke-linecap:square;stroke-linejoin:miter;stroke-miterlimit:10;stroke-dasharray:none;stroke-opacity:1"
                 d="M 759.085,75.92 H 1126.08" /><path
                 id="path712"
                 style="fill:none;stroke:#cccccc;stroke-width:1;stroke-linecap:square;stroke-linejoin:miter;stroke-miterlimit:10;stroke-dasharray:none;stroke-opacity:1"
                 d="M 759.085,353.28 H 1126.08" /><text
                 id="text716"
                 style="font-variant:normal;font-weight:normal;font-size:24px;font-family:'DejaVu Sans';-inkscape-font-specification:DejaVuSans;writing-mode:lr-tb;fill:#262626;fill-opacity:1;fill-rule:nonzero;stroke:none"
                 transform="matrix(1,0,0,-1,857.84812,386.16125)"><tspan
                   id="tspan714"
                   sodipodi:role="line"
                   y="0"
                   x="0 20.712 35.400002 47.903999 57.312 64.944 78.143997 92.832001 116.208 139.584 154.272">Most common</tspan></text><text
                 id="text720"
                 style="font-variant:normal;font-weight:normal;font-size:24px;font-family:'DejaVu Sans';-inkscape-font-specification:DejaVuSans;writing-mode:lr-tb;fill:#262626;fill-opacity:1;fill-rule:nonzero;stroke:none"
                 transform="matrix(1,0,0,-1,796.145,359.28)"><tspan
                   id="tspan718"
                   sodipodi:role="line"
                   y="0"
                   x="0 23.375999 38.591999 48 62.712002 72.120003 78.792 93.480003 108.696 116.328 129.528 144.216 150.888 166.104 189.48 204.696 212.328 227.54401 242.256 265.63199 280.392">mutation column names</tspan></text></g></g></g></g></g><g
       transform="translate(-108,-535.5)"
       id="g728"><text
         id="text736"
         style="font-variant:normal;font-weight:normal;font-size:9.9626px;font-family:CMR10;-inkscape-font-specification:CMR10;writing-mode:lr-tb;fill:#000000;fill-opacity:1;fill-rule:nonzero;stroke:none"
         transform="matrix(1,0,0,-1,108,512.985)"><tspan
           id="tspan730"
           sodipodi:role="line"
           y="0"
           x="0 6.5035853 9.2711954 14.252496 19.787716 23.690067 31.723907 36.705208 44.474041 53.606758 58.588058 62.517307 69.998222 74.425606 79.406906 87.70874 96.010574 100.99187 110.13355 115.66878 120.65008 128.9519 133.37929 140.92496 143.96953 148.95084 156.45964 160.88702 165.86832 168.63594 174.17116 182.47299 188.00821 195.54391 199.41838 204.9536 209.93489 217.41582 222.39711 227.93233 233.74651 238.17389 243.15518 247.05754 251.48491 260.62659 264.50104 273.08881 277.5162 282.4975 287.75375 291.6282 296.60953 299.37714 308.5188 313.50012 317.92749 323.46271 331.49655 337.03177 342.01306 345.88751 354.47528 358.34973 361.11734 365.54474 368.58929 372.46375 379.94467 384.92596 390.46118">Figure7:Mostcommonnamesforcolumnsthatappearedtocontaingenedata(left)and</tspan><tspan
           id="tspan732"
           sodipodi:role="line"
           y="17.933001"
           x="0 3.0445704 8.0258703 15.285617 19.712997 24.694296 27.461906 32.997128 41.298962 46.834183 54.120827 57.995285 63.530502 68.511803 75.743652 80.724953 86.260178 92.064384 96.491768 101.47307 105.37542 109.8028 118.69541 122.56987 130.90857 135.33594 140.31725 145.58348 149.45793 154.43922 157.19688 166.08949 174.12234 179.65756 183.53201 188.51332 192.38777 195.15538 200.13667 209.01933 214.55455 219.53586 223.41031 231.74901 235.62346 239.52582 242.29343 247.27472 252.53099 256.40546 260.27991 267.59045 274.78543 279.76675 282.53436 288.06958 296.3714 305.26404 310.79926 315.78055 324.08237 328.50977 335.79642 342.71243 347.13983 351.04218 358.82693 364.36218 369.34348 376.57532 382.11053 386.03979 390.46716">forcolumnsthatappearedtocontainmutationdata(right).Columnnameswerenotused</tspan><tspan
           id="tspan734"
           sodipodi:role="line"
           y="35.866001"
           x="0 2.7676103 11.620377 15.494832 21.030052 28.784941 34.043201 39.578423 44.005802 47.90815 56.483955 60.358414 65.893631 70.874931 78.066933 81.996185 86.423561 89.19117 93.618553 98.045929 101.92039 106.34776 115.21049 119.08495 124.62017 129.04755 132.97681 140.72173 144.59618 149.57748 155.1127 157.88031 162.30769 166.23694">inthequerythatselectedthesetables.</tspan></text><text
         id="text740"
         style="font-variant:normal;font-weight:normal;font-size:14.3462px;font-family:CMBX12;-inkscape-font-specification:CMBX12;writing-mode:lr-tb;fill:#000000;fill-opacity:1;fill-rule:nonzero;stroke:none"
         transform="matrix(1,0,0,-1,108,441.852)"><tspan
           id="tspan738"
           sodipodi:role="line"
           y="0"
           x="0 24.209213 35.865501 43.935238 52.901611 60.074711 64.557899 73.524277 79.891121 84.374306 92.444046 106.79025 114.63618 123.60255 137.94876 146.74585 155.71222 161.98868 170.95506 177.54713 190.29086 205.61261 213.68234 220.27443">5ConclusionandFutureWork</tspan></text><text
         id="text780"
         style="font-variant:normal;font-weight:normal;font-size:9.9626px;font-family:CMR10;-inkscape-font-specification:CMR10;writing-mode:lr-tb;fill:#000000;fill-opacity:1;fill-rule:nonzero;stroke:none"
         transform="matrix(1,0,0,-1,108,414.053)"><tspan
           id="tspan742"
           sodipodi:role="line"
           y="0"
           x="0 3.5974948 13.317007 17.191463 22.726683 25.494293 33.607834 40.523872 45.505173 49.40752 58.850075 65.766113 74.377785 79.913002 84.340385 88.26963 92.697014 96.599365 99.366974 105.18114 113.79282 122.95841 129.87445 134.85574 138.7581 144.01636 149.55157 154.25392 165.63321 168.67778 173.65907 181.74571 186.1731 191.43137 195.30582 199.20816 204.18947 208.61684 212.4913 215.25891 220.79413 229.95972 233.83418 238.81548 244.35069 247.1183 251.54568 259.65924 262.7038 266.60614 271.58746 284.07358 287.94803 293.48325 302.09491 307.63016 310.39777 315.37906 323.68088 328.10828 333.64349 336.4111 340.83847 345.81979 352.77167 355.53928 358.30692 362.18137 366.60873 370.51108 375.4924 379.36685 384.90207 388.80441 393.23178">Inthisworkwedescribeaworkfowforextractingtablesfromthebiomedicalliterature,</tspan><tspan
           id="tspan744"
           sodipodi:role="line"
           y="17.933001"
           x="0 4.9812999 10.516521 19.917231 25.45245 29.879829 38.181664 43.162964 48.698185 52.627434 56.501888 60.40424 65.385544 69.259995 77.562828 81.437279 86.972504 95.265373 100.80059 104.67505 107.44266 110.21027 112.97787 116.57338 125.69713 130.67842 137.59845 141.4729 147.00813 155.30099 159.20334 163.63072 167.55997 173.0952 175.86281 179.73726 182.50487 188.04008 196.88687 201.31425 206.29556 209.06317 211.83078 216.25816 220.68553 224.56 227.32761 232.3089 241.71957 246.70088 253.61093 257.48538 262.46667 268.00192 270.76953 275.1969 282.99164 285.75925 295.16992 299.07227 304.60748 310.1427 315.67792 318.44556 323.97079 332.82755 337.80884 343.34409 346.66461 352.19983 357.46008 365.75296 371.0112 376.54642 380.97382 384.87616 387.64377 392.07114">anddemonstratetheutilityoftheresultingcollectionoftablesinrunningad-hocqueries</tspan><tspan
           id="tspan746"
           sodipodi:role="line"
           y="35.865002"
           x="0 4.9812999 10.516521 19.369287 23.796667 28.777966 34.313187 38.242435 42.11689 46.019241 51.554462 55.981842 59.856297 62.623909 68.159126 76.467934 82.003159 86.984459 95.286293 100.26759 103.0352 108.56046 111.89095 115.82021 121.62442 126.0518 130.47917 133.24678 138.78201 146.5369 152.07211 157.05342 160.92787 165.90916 169.83842 174.26579 178.14026 182.0695">andconstructingdomain-specifcdatasets.</tspan><tspan
           id="tspan748"
           sodipodi:role="line"
           y="53.798"
           x="14.944 22.13899 27.67421 35.189995 40.725216 44.627567 47.395176 55.69701 60.67831 64.580666 72.92733 75.694939 78.462547 86.764381 89.53199 93.406448 98.387749 102.26221 105.02982 110.01112 118.63474 123.61604 129.75899 134.74028 140.2755 147.26625 154.1823 159.16359 163.06595 171.41261 175.31496 179.74234 188.04417 193.02548 195.79309 201.32831 208.34596 212.22041 217.75563 225.28139 228.049 233.03029 237.17873 245.52539 250.50668 256.63968 261.62097 267.43515 271.86252 280.48615 285.46744 289.89484 294.3222 298.74957 302.67883 309.70645 313.5809 321.6506 325.57986 330.00723 332.77484 337.20224 342.4585 346.33295 349.10056 354.63577 362.15158 367.13287 371.03522 374.90967 377.67728 382.10468 384.87228 389.29965 393.22891">Theprimarylimitationofourworkremainsthelackofopenaccesstoscientifcarticles.</tspan><tspan
           id="tspan750"
           sodipodi:role="line"
           y="71.731003"
           x="0 7.7489104 13.284131 16.051741 24.209118 29.190418 34.171719 45.372669 50.35397 56.297657 60.172112 65.707329 73.033829 78.015129 81.91748 85.791931 88.559547 92.986923 95.754532 100.18192 107.01028 109.77789 115.31311 120.84833 125.27571 130.53397 134.96135 143.39569 148.65195 156.80933 163.58987 169.12509 174.66032 183.79303 188.22041 196.65475 201.63605 205.52844 212.85493 217.83623 222.27357 226.70096 231.12834 235.05759 238.98683 241.75444 247.28966 250.05728 257.38376 260.42834 264.33069 269.31198 280.51294 287.29349 292.81876 298.35397 307.48669 311.91406 320.34839 327.5434 331.97076 337.237 341.11145 345.01379 349.99512 352.76273 358.50916 363.49045 369.02567 377.45999 382.44131 387.97653 390.74414">Only15%ofthearticlesindexedbyPubMedareaccessiblefromPubMedCentral,andonly</tspan><tspan
           id="tspan752"
           sodipodi:role="line"
           y="89.664001"
           x="0 4.9812999 16.849745 21.831045 28.442226 32.316681 37.851902 42.833202 46.762451 54.756443 59.737743 63.640091 67.514549 70.282158 74.709534 77.47715 81.904526 89.400391 93.827766 98.809067 107.92086 113.72507 121.71906 124.76363 128.66599 133.09337 137.52074 140.28835 149.11322 154.64844 159.36075 166.55574 172.09096 174.85857 179.83987 184.82117 190.3564 194.78377 203.8856 208.86691 216.36276 221.89798 226.87929 230.78163 238.2227 243.20401 249.81519 253.68964 259.22485 267.21884 272.20016 278.01431 282.44171 291.54355 296.52484 300.95221 305.37958 309.80698 313.73624 321.23209 325.16135 330.69656 336.23178 340.16101 344.58841 348.46286 356.40106 363.87302 368.57535 375.49139 379.91876 384.89807 389.32547 393.22781">8%ofthosearticlescanbefreelydownloadedaspartoftheopenaccesssubset.However,</tspan><tspan
           id="tspan754"
           sodipodi:role="line"
           y="107.596"
           x="0 3.8744552 9.4096756 13.837055 17.739405 25.67362 30.654921 34.55727 42.50145 46.430698 49.198307 54.179607 59.714828 67.150909 71.025368 76.560585 81.541885 88.92318 92.79763 98.332855 101.10046 108.54651 112.47576 115.24337 119.11783 124.65305 129.63435 133.5088 136.27641 141.25771 150.29977 153.06738 160.50346 163.27107 171.57291 177.10812 181.01048 185.71283 190.97108 193.73869 199.27391 204.25522 212.02405 219.21904 224.75426 232.68848 235.73305 239.63541 244.6167 249.04408 252.91853 255.68614 260.66745 269.7095 274.6908 281.25217 286.78738 292.3226 297.85782 300.62543 303.39304 307.3223 312.85751 317.28491 326.32697 331.30826 335.2106 339.08505 341.85266 346.28006 349.04767 353.47504 360.91113 364.78558 370.3208 375.30209 382.69336 387.67465 391.56705">therearesignsthatthissituationisimproving.Thefractionofpublishedarticlesthatare</tspan><tspan
           id="tspan756"
           sodipodi:role="line"
           y="125.529"
           x="0 4.7023473 9.4126644 14.393965 17.161575 19.929186 24.910484 30.445705 33.213314 41.087753 44.132324 48.034676 53.015976 64.76487 71.545418 77.080635 82.605896 91.738609 96.165993 105.14827 112.34326 116.7806 122.03687 125.91132 129.81367 134.79497 141.00964 146.54486 151.52617 158.90248 164.70668 169.13406 173.56145 182.54372 186.47298 190.34743 194.78477 199.76607 205.29132 208.05894 210.82655 219.53188 222.29948 227.8347 232.26208 236.16443 240.59181 245.5731 249.50237 252.26997 257.80518 266.23355 270.108 276.6116 279.37921 284.3605 289.89572 293.79807 301.67252 306.65381 310.52826 318.10782 323.77454 329.30975 333.2121 337.08658 342.6218 347.04916 350.95151 359.25336 364.23465 368.13699 372.56439 378.81891 384.35413 388.24652 392.68384">availablefromPubMedCentralhasbeensteadilyincreasing(Figure1).Furthermore,pre-</tspan><tspan
           id="tspan758"
           sodipodi:role="line"
           y="143.46201"
           x="0 5.5352206 9.4375706 12.205181 17.461449 24.374496 28.303747 32.731125 36.633476 41.891735 44.659348 49.086727 53.514107 60.481949 64.411201 69.946419 74.104805 82.678619 87.65992 94.627762 99.609062 103.51141 110.98336 113.75098 122.04783 127.02913 132.56435 141.13817 146.67339 149.44099 154.42229 161.75577 167.01402 169.78163 178.07849 183.05978 186.96214 194.42812 199.40941 204.39072 207.15833 212.69354 215.46115 220.99637 229.01627 234.82048 239.80177 245.33699 250.87222 253.63983 258.62112 262.52347 265.29108 268.8866 277.18344 282.16473 287.69995 296.27377 301.25507 305.15744 312.62341 315.39102 320.92624 325.35361 329.25595 333.68335 338.66464 342.60385 345.37146 350.89673 358.92657 364.73077 369.7121 373.58655 382.16037 386.03482 391.57004">printservicessuchasarXivandbioRxivaregainingpopularityandareincreasingboththe</tspan><tspan
           id="tspan760"
           sodipodi:role="line"
           y="161.395"
           x="0 4.9812999 9.408679 13.836059 18.263439 22.192688 26.121937 28.889547 34.424767 37.192379 39.959988 42.7276 46.323101 54.908871 58.783325 67.082169 70.98452 75.411903 79.341148 83.768532 88.749832 92.652184 96.800606 105.66334 110.64464 116.17986 125.03262 128.90707 134.44229 142.18723 146.11647 151.93065 156.35803 160.7854 169.63817 174.61948 181.82144 189.01642 194.55165 197.31926 201.46768 210.32045 214.22279 218.65018 222.57942 227.00681 231.98811 235.89046 240.04884 248.90161 254.43683 259.97205 265.50726 268.27487 273.81012 278.79141 286.03821 291.0195 294.92184 302.66678 308.202 310.9696 314.89886 318.82809 323.25549 331.56729 334.32492 339.86014 344.84146 348.71591 353.14328 358.6785">accessibilitytoresearchandthespeedatwhichresearchfndingsaredisseminated.</tspan><tspan
           id="tspan762"
           sodipodi:role="line"
           y="179.327"
           x="14.944 22.415951 27.95117 32.932472 36.806927 42.342148 46.769527 53.879833 56.647442 59.415054 67.716888 70.484497 74.358955 79.340256 83.214706 85.982323 90.963623 99.696831 104.67813 110.93066 115.91196 121.44718 128.54753 135.47353 140.45483 144.35718 152.81343 155.58104 162.71825 166.5927 172.12793 179.76326 185.29848 188.06609 196.36792 200.7953 206.33052 209.09814 212.69363 221.15985 223.91751 232.66069 237.08806 242.34633 246.22078 250.12312 255.10443 259.5318 263.40625 266.17386 271.70911 279.89835 284.87964 290.41489 299.14807 304.68332 308.58566 313.84592 318.27328 322.70068 326.62991 330.55917 333.32678 338.862 347.05127 350.92572 355.90701 361.44223 364.20984 368.63721 375.77441 378.819 382.72134 387.70264">Anotherlimitationofourworkisthedifcultyinextractingandprocessingtablesfrom</tspan><tspan
           id="tspan764"
           sodipodi:role="line"
           y="197.25999"
           x="0 8.249033 16.281878 21.540138 25.442488 28.210098 33.191399 41.99435 46.975651 53.297916 58.833138 61.60075 67.411934 71.83931 75.741661 80.169044 85.425308 92.567497 95.612068 100.59337 104.49572 112.79755 117.77885 121.65331 128.86026 131.62787 136.88412 140.75859 149.00761 157.26662 161.19586 163.96347 169.49869 174.48 177.2476 184.94272 189.3701 194.35139 199.88661 203.81587 206.58348 210.51273 214.38718 218.82452 224.0808 231.22298 234.26755 239.24886 243.1512 251.45303 256.43433 260.30878 266.36404 271.34537 276.88058 285.68353 289.55798 295.0932 302.78833 307.22568 311.11804 315.02039 320.00171 323.90405 331.11099 334.98544 340.52066 345.50198 352.64417 357.07153 362.05283 370.86575 376.67993 384.37503 387.14264 392.67786">amyriadofdiferentformatsintoasingleconsistentformat,andtheerrorsthatcanbein-</tspan><tspan
           id="tspan766"
           sodipodi:role="line"
           y="215.19299"
           x="0 3.8744552 7.7768054 13.037059 18.572279 24.1075 28.53488 32.962257 41.287006 44.054619 52.389328 56.263783 61.799004 64.566612 71.295357 76.830574 80.732925 85.993179 90.420555 94.847939 98.777184 102.70644 109.72807 116.0862 121.0675 126.60273 129.37035 133.79771 140.52646 146.06168 149.96404 154.3914 158.32066 162.74803 168.0043 174.67825 177.44586 185.78058 192.56111 197.81938 202.24677 206.67413 212.23128 217.76649 220.5341 224.96149 231.69023 236.67152 240.57388 247.80075 255.58154 261.11676 266.09805 270.0004 273.87488 276.64249 281.06985 286.60507 289.37268 294.35397 298.25635 301.02396 309.07175 313.22015 318.75537 323.73669 326.5043 329.27191 333.69928 339.2345 344.21579 346.9834 352.51862 360.29941 364.72681 369.98505 374.96637 383.26819 388.80341 391.57101">troducedinthisprocess.TablespresentinExcelflesareaparticularlychallengingexample</tspan><tspan
           id="tspan768"
           sodipodi:role="line"
           y="233.12601"
           x="0 4.9812999 12.000948 15.875403 21.410624 24.178234 32.082561 37.617783 41.52013 46.501431 52.036652 54.804264 59.231644 71.508553 77.322731 81.750107 86.177483 91.158783 96.694008 100.62325 109.02571 112.90017 118.43539 122.86277 132.0961 137.07741 140.12198 143.99643 148.42381 157.93411 160.70172 166.23694 170.66432 173.43193 178.96715 184.50237 192.90483 197.33221 202.31351 207.84872 211.72319 214.4908 219.47209 225.00731 228.93657 235.83865 238.88322 244.14348 249.12477 252.99924 258.53445 263.51575 267.3902 271.8176 275.74683 282.64893 288.18414 293.16544 298.70065 302.60303 307.0304 310.95966 317.8717 322.853 328.38821 337.89853 341.77298 346.20035 351.45862 355.33307 362.23517 369.43015 372.19775 376.0722 381.60742 386.58875 392.12396">ofthisproblembecausetheyoftenincludecaptions,footnotes,fgures,andtext,without</tspan><tspan
           id="tspan770"
           sodipodi:role="line"
           y="251.058"
           x="0 4.9812999 10.237568 18.883112 23.310492 28.291792 33.548058 38.537331 42.96471 48.220978 52.095432 54.863041 59.844341 68.766846 73.748146 82.670654 88.205872 92.908218 103.49049 108.47179 114.00701 122.92952 130.12451 135.65973 140.08711 143.98946 151.80412 155.67857 161.21379 163.98141 171.29794 176.83316 181.81447 185.68892 194.0575 196.8251 204.14165 209.67686 212.44447 217.42578 221.85315 226.28053 231.81575 239.20601 246.401 251.93622 259.75089 268.05273 273.03403 276.96326 284.22501 289.76022 294.74152 297.50912 302.49841 310.31308 315.29437 320.82959 326.36481 330.26715 335.24847 340.22977 344.3782 349.91342 356.07828 363.27325 368.80847 371.57608 375.73447 384.65698 391.57303">anyconventiononhowandwherethisdataisplaced.Themostnaiveapproach,whichwe</tspan><tspan
           id="tspan772"
           sodipodi:role="line"
           y="268.991"
           x="0 5.5352206 9.4644699 17.986479 20.754087 30.383938 34.258392 39.793613 42.561222 50.585102 56.120323 60.022671 65.551918 68.596489 73.023865 77.461205 81.335663 88.387192 91.1548 99.17868 103.05313 112.12907 119.32405 123.2264 125.99401 129.86847 138.39047 142.81786 148.35307 152.28233 156.15678 161.13808 173.53455 176.30215 181.83737 187.09564 191.52301 195.42537 202.2876 205.33217 210.8674 216.40262 220.83 224.70445 227.47206 232.45335 237.98859 246.01247 249.88692 255.42213 260.40344 268.37253 273.35382 276.12143 288.51788 292.39233 301.46826 307.00351 316.35638 320.23083 325.76605 334.28806 342.5899 347.5712 351.50046 359.46954 363.89691 368.8782 377.18005 385.48187 390.4632">useinthisproject,istowritecustom‘fxer’functionsthataimtofxthemostcommon</tspan><tspan
           id="tspan774"
           sodipodi:role="line"
           y="286.92401"
           x="0 5.5352206 9.4375706 14.418871 19.954092 22.721703 27.149082 35.450916 39.380165 46.351994 53.823944 58.526291 65.452286 69.879669 74.858978 79.286354 83.188705 88.745842 91.513458 98.047928 100.81554 107.4048 112.94002 115.70763 124.00946 128.43684 133.97206 136.73967 143.26418 147.13864 154.77995 160.59412 167.68152 171.61076 177.14598 181.04834 188.12576 192.00023 197.53545 202.51674 209.05121 216.69252 219.46014 224.99536 230.25362 235.68124 238.72581 243.70711 250.25952 255.24081 260.77603 267.86343 271.73788 276.71918 282.25439 285.022 292.10941 299.30441 302.07202 304.83963 310.26724 315.80246 320.78375 327.30826 330.07587 335.3421 339.21655 343.10895 348.3692 353.90442 359.43964 363.86703 370.95444 375.38181 379.28415 383.18649 388.16782 392.07016">problems.However,itisdifculttobesurethata‘fx’foronetablewillnotintroduceerrors</tspan><tspan
           id="tspan776"
           sodipodi:role="line"
           y="304.85699"
           x="0 2.7676103 11.191985 19.062439 24.59766 27.365271 33.176453 37.603832 41.506184 45.933563 51.199795 57.963402 61.837856 66.81916 72.354378 75.121986 79.54937 86.600899 96.961998 105.26383 110.24513 114.14748 121.46402 126.99924 131.98055 134.74815 137.51576 141.44501 145.31946 148.08708 155.40361 160.3849 165.92014 171.45535 175.3577 180.339 185.3203 189.47868 197.90306 206.2049 210.90724 219.05466 224.86884 232.18536 236.05981 243.93028 249.4655 253.39474 260.72125 269.02307 274.00436 278.1528 283.68802 286.45563 291.99084 299.30737 302.07501 306.50238 311.48367 315.38602 320.92123 323.68887 329.22409 337.09454 340.96899 348.83945 354.37466 357.14227 361.07153 364.94598 367.71359 373.24881 378.2301 383.76532 386.53293 390.46219">inadiferenttable.Amoreholisticapproachmaybetousemachinelearningtodistinguish</tspan><tspan
           id="tspan778"
           sodipodi:role="line"
           y="335.94101"
           x="193.019 198.00031">14</tspan></text></g></g></svg>
